// 297
//== The Fundamental Attribution Error
== Розділ 5. Фундаментальна помилка атрибуції

// 298
//J. K. Rowling is staring at you. Can you feel her eyes on you? She’s reading
//your mind using her Rowling Rays.
Дж. К. Ролінґ пильно дивиться на тебе. Відчуваєш її погляд? Вона читає
твої думки за допомогою своїх Ролінґ-променів.

***

// 299
//__“It would’ve required a ____supernatural intervention__ for him to
//have __your__ morality given __his__ environment.”
// !пропоную використовувати "потрібно" і спільнокореневі, якщо не йдеться про necessity:
// http://slovopedia.org.ua/34/53405/33217.html
// hedrok копія в 087:15856
-- __Враховуючи __його оточення__, потрібне було б __надприродне втручання__, 
щоб у нього були __твої__ моральні принципи.__

***

// 300
//The Moke Shop was a quaint little shop (some might even say cute) ensconced
//behind a vegetable stall that was behind a magical glove shop that was on an
//alleyway off a side street of Diagon Alley. Disappointingly, the shopkeeper was
//not a wizened ancient crone; just a nervous-looking young woman wearing faded
//yellow robes. Right now she was holding out a Moke Super Pouch QX31, whose
//selling point was that it had a Widening Lip as well as an Undetectable
//Extension Charm: you could actually fit big things in it, though the total
//volume was still limited.
// @ selling point
"`Мокова Крамниця`" виявилася чудернацькою маленькою крамничкою (дехто навіть
сказав би милою), схованою за овочевим прилавком, що був за крамницею магічних
рукавичок, що розташовувалася у провулку, що виходив від бічної вулиці алеї Діаґон. На превелике 
розчарування, крамарка виявилася не зморщеною прадавньою гаргарою, а знервованою молодою 
жінкою в побляклій жовтій мантії. Саме зараз вона пропонувала "`Супер капшук з моки QX31`", 
головною особливістю якого була наявність водночас і невиявних чар подовження, і розширюваного
горлечка, завдяки чому до нього можна було класти й великі речі, хоча загальна
місткість все одно була обмежена.

// 301
//Harry had __insisted__ on coming here straight away, first thing -
//insisted as hard as he thought he could without making Professor McGonagall
//suspicious. Harry had something he needed to put into the pouch as soon as
//possible. It wasn’t the bag of Galleons that Professor McGonagall had allowed
//him to withdraw from Gringotts. It was all the other Galleons that Harry had
//surreptitiously shoved into his pocket after falling into a heap of gold coins.
//That __had__ been a real accident, but Harry was never one to discard an
//opportunity… though it’d really been more of a spur-of-the-moment thing. Ever
//since Harry had been awkwardly carrying the allowed bag of Galleons next to his
//trouser pocket, so that any jingling would seem to come from the right place.
Гаррі був __наполягав__ одразу, найперше піти сюди -- наполягав настільки
сильно, наскільки вважав можливим наполягати, не викликаючи підозр у професорки 
Макґонеґел. Гаррі мав дещо, що треба було покласти до капшучка якнайшвидше. 
Йшлося не про мішечок ґалеонів, що їх професорка Макґонеґел дозволила забрати
з "`Ґрінґотсу`". Йшлося про всі ті ґалеони, що їх Гаррі нишком запхав до кишені 
після падіння на купу золотих монет. Це __справді__ сталося випадково, проте 
Гаррі ніколи не відмовлявся від можливостей... Хоча це й був спонтанний вчинок. 
Відтоді Гаррі незграбно носив мішечок дозволених ґалеонів поряд з кишенею штанів, 
щоб дзеленчання долинало нібито з правильного місця.

// 302
//This still left the question of how he was actually going to get the
//__other__ coins into the pouch without getting caught. The golden coins
//might have been his, but they were still stolen - self-stolen? Auto-thieved?
Він досі не знав, як саме покладе __інші__ монети до капшучка без того, щоб 
його викрили. Може золоті монети й належать йому, проте вони все одно вкрадені
-- самовкрадені? Автопоцуплені?

// 303
//Harry looked up from the Moke Super Pouch QX31 on the counter in front of him.
//“Can I try this for a bit? To make sure it works, um, reliably?” He widened his
//eyes in an expression of boyish, playful innocence.
Гаррі відвів погляд від "`Супер капшука з моки QX31`", що лежав на прилавку.

-- Можу я трохи поекспериментувати?  Щоб переконатися, що він працює, ем,
надійно? -- він розширив очі, щоб надати обличчю вираз дитячої, грайливої
невинності.

// 304
//Sure enough, after ten repetitions of putting the coin-bag into the pouch,
//reaching in, whispering “bag of gold”, and taking it out, Professor McGonagall
//took a step away and began examining some of the other items in the shop, and
//the shopkeeper turned her head to watch.
Звісно, після десяти повторів перекладання мішечка з монетами до капшучка,
занурювання у нього руки, шепотіння "`мішок золота`" і виймання мішечка, професорка
Макґонеґел відійшла й почала розглядати інші товари, а крамарка повернула голову,
щоб спостерігати за нею.

// 305
//Harry dropped the bag of gold into the mokeskin pouch with his __left__
//hand; his __right__ hand came out of his pocket tightly holding some of
//the gold coins, reached into the mokeskin pouch, dropped the loose Galleons,
//and (with a whisper of “bag of gold”) retrieved the original bag. Then the bag
//went back into his __left __hand, to be dropped in again, and Harry’s
//__right __hand went back into his pocket…
Гаррі кидав мішечок золота до капшучка __лівою рукою__. __Права__ зʼявлялася з
кишені, напружено стискаючі золоті монети, занурювалася до капшучка, випускала
утримувані ґалеони і (з шепотом "`мішечок золота`") витягала мішечок. Потім
мішечок повертався до __лівиці__, щоб та знову вкинула його в капшук, 
доки __правиця__ рухалася назад до кишені...

// 306
//Professor McGonagall looked back at him once, but Harry managed to avoid
//freezing or flinching, and she didn’t seem to notice anything. Though you never
//__did__ quite know, with the adults that had a sense of humour. It took
//three iterations to get the job done, and Harry guessed he’d managed to steal
//maybe thirty Galleons from himself.
Професорка Макґонеґел поглянула на нього раз, проте Гаррі зумів не 
заклякнути й не здригнутися, тож вона, видавалося, нічого не помітила. Хоча з 
дорослими, що мають почуття гумору, неможливо бути __впевненим__. 
Знадобилося три ітерації, щоб виконати заплановане. Гаррі прикинув, що 
зумів вкрасти в самого себе приблизно тридцять ґалеонів.

// 307
//Harry reached up, wiped a bit of sweat from his forehead, and exhaled. “I’d
//like this one, please.”
Гаррі підвів голову, витер піт з чола й видихнув.

-- Цей, будь ласка.

// 308
//Fifteen Galleons lighter (twice the price of a wizard’s wand, apparently) and
//one Moke Super Pouch QX31 heavier, Harry and Professor McGonagall pushed their
//way out of the door. The door formed a hand and waved goodbye to them as they
//left, extruding its arm in a way that made Harry feel a bit queasy.
Легші на пʼятнадцять ґалеонів (ціну двох чарівних паличок, як виявилося)
і важчі на один "`Супер капшук з моки QX31`", Гаррі й професорка
Макґонеґел пробилися на вихід. На дверях зʼявилася рука, що помахала їм на
прощання. Від того, як вона випиналася, Гаррі трохи млоїло.

// 309
//And then, unfortunately…
А потім, на жаль...

// 310
//“Are you __really__ Harry Potter?” whispered the old man, one huge tear
//sliding down his cheek. “You wouldn’t lie about that, would you? Only I’d heard
//rumours that you didn’t __really__ survive the Killing Curse and that’s
//why no one ever heard from you again.”
-- Ти __справді__ Гаррі Поттер? -- прошепотів старий, одна величезна сльоза
котилася по його щоці. -- Ти ж не брехатимеш про таке, чи не так? Бо ходять
чутки, нібито __насправді__ ти не пережив смертельне закляття, і тому ніхто
більше про тебе не чув.

// 311
//…it seemed that Professor McGonagall’s disguise spell was less than perfectly
//effective against more experienced magical practitioners.
...схоже, маскувальне закляття професорки Макґонеґел було геть не ідеально 
ефективним проти досвідченіших користувачів магії.

// 312
//Professor McGonagall had laid a hand on Harry’s shoulder and yanked him into
//the nearest alleyway the moment she’d heard “Harry Potter?” The old man had
//followed, but at least it looked like no one else had heard.
Професорка Макґонеґел поклала руку на плече Гаррі й виштовхала його до
найближчого провулочка, щойно почула "`Гаррі Поттер`". Старий пішов за ними,
проте принаймні видавалося, що ніхто більше його не почув.

// 313
//Harry considered the question. __Was__ he really Harry Potter? “I only
//know what other people have told me,” Harry said. “It’s not like I remember
//being born.” His hand brushed his forehead. “I’ve had this scar as long as I
//remember, and I’ve been told my name was Harry Potter as long as I remember.
//But,” Harry said thoughtfully, “if there’s already sufficient cause to
//postulate a conspiracy, there’s no reason why they wouldn’t just find another
//orphan and raise him to believe that __he__ was Harry Potter -”
Гаррі обміркував питання. __Чи був__ він справді Гаррі Поттер?

-- Я лише знаю, що розповідали мені інші, -- сказав Гаррі. -- Я ж не памʼятаю,
як народився, -- його рука легко торкнулася лоба. -- Я маю цей шрам, скільки
себе памʼятаю, і мені казали, що мене звуть Гаррі Поттер, скільки я себе
памʼятаю. Проте, -- замислено продовжив Гаррі, -- якщо існує достатня причина,
щоб припускати існування змови, то не бачу, що могло б завадити комусь просто знайти іншого
сироту й виховувати його в переконанні, нібито __він__ є Гаррі Поттером...

// 314
//Professor McGonagall drew her hand over her face in exasperation. “You look
//just about exactly like your father, James, the year he first attended
//Hogwarts. And I can attest on the basis of __personality alone__ that you
//are related to the Scourge of Gryffindor.”
Професорка Макґонеґел роздратовано закрила обличчя рукою.

// @ Scourge of Gryffindor
-- Ви викапаний батько, Джеймс, яким він був у перший рік навчання у 
Гоґвортсі. І я можу засвідчити на підставі __самого лише характеру__, що ви
повʼязані з Лихом Ґрифіндору.

// 315
//“__She__ could be in on it too,” Harry observed.
-- __Вона__ також може брати участь у змові, -- зазначив Гаррі.

// 316
//“No,” quavered the old man. “She’s right. You have your mother’s eyes.”
-- Ні, -- тремтячим голосом сказав старий. -- Вона має рацію. У тебе мамині очі.

// 317
//“Hmm,” Harry frowned. “I suppose __you__ could be in on it too -”
-- Гмм, -- Гаррі насупився. -- Гадаю, ви __також__ можете бути в цій змові...

// 318
//“Enough, Mr. Potter.”
-- Годі, містере Поттер.

// 319
//The old man raised up a hand as if to touch Harry, but then let it fall. “I’m
//just glad that you’re alive,” he murmured. “Thank you, Harry Potter. Thank you
//for what you did… I’ll leave you alone now.”
Старий підняв руку, ніби хотів доторкнутися до Гаррі, проте потім опустив її.

-- Я просто радий, що ти живий, -- пробурмотів він. -- Дякую тобі, Гаррі
Поттере. Дякую за те, що ти зробив... Тепер я залишу тебе.

// 320
//And his cane slowly tapped away, out the alley and down the main street of
//Diagon Alley.
І його ціпок повільно постукав далі, поза провулок, головною вулицею алеї Діаґон.

// 321
//The Professor looked around, her expression tense and grim. Harry automatically
//looked around himself. But the alley seemed empty of all but old leaves, and
//from the mouth leading out into Diagon Alley, only swiftly striding passersby
//could be seen.
Професорка огледілася. Її вираз був напруженим і суворим. Гаррі автоматично
огледівся й сам, проте вкритий старим листям провулок видавався порожнім, а на
перехресті з алеєю Діаґон було видно лише самотнього перехожого, що швидко проходив
повз.

// 322
//Finally Professor McGonagall seemed to relax. “That was not well done,” she
//said in a low voice. “I know you’re not used to this, Mr. Potter, but people do
//care about you. Please be kind to them.”
Нарешті професорка Макґонеґел, здавалося, розслабилася.

-- Це було не гарно, -- тихо сказала вона. -- Я знаю, що для вас це все 
нове, містере Поттер, проте люди справді турбуються про вас. Будь ласка, будьте
добрішим до них.

// 323
//Harry looked down at his shoes. “They shouldn’t,” he said with a tinge of
//bitterness. “Care about me, I mean.”
Гаррі поглянув на своє взуття.

-- Їм не варто, -- дещо гірко сказав він. -- Я маю на увазі, турбуватися про
мене.

// 324
//“You saved them from You-Know-Who,” said Professor McGonagall. “How should they
//not care?”
-- Ви врятували їх від Відомо-Кого, -- сказала професорка Макґонеґел, -- Як
вони можуть не турбуватися?

// 325
//Harry looked up at the witch-lady’s strict expression beneath her pointed hat,
//and sighed. “I suppose there’s no chance that if I said __fundamental
//attribution error__ you’d have any idea what that meant.”
Гаррі поглянув на строгий вираз пані відьми під гостроверхим капелюхом і
зітхнув.

-- Гадаю, не варто сподіватися, що вам бодай щось скаже фраза __фундаментальна 
помилка атрибуції__.

// 326
//“No,” said the Professor in her precise Scottish accent, “but please explain,
//Mr. Potter, if you would be so kind.”
-- Не варто, -- відповіла професорка зі своїм чітким шотландським акцентом,
-- проте поясніть, містере Поттер, якщо ваша ласка.

// 327
//“Well…” Harry said, trying to figure out how to describe that particular bit of
//Muggle science. “Suppose you come into work and see your colleague kicking his
//desk. You think, ‘what an angry person he must be’. Your colleague is thinking
//about how someone bumped him into a wall on the way to work and then shouted at
//him. __Anyone__ would be angry at that, he thinks. When we look at others
//we see personality traits that explain their behaviour, but when we look at
//ourselves we see circumstances that explain our behaviour. People’s stories
//make internal sense to them, from the inside, but we don’t see people’s
//histories trailing behind them in the air. We only see them in one situation,
//and we don’t see what they would be like in a different situation. So the
//fundamental attribution error is that we explain by permanent, enduring traits
//what would be better explained by circumstance and context.” There were some
//elegant experiments which confirmed this, but Harry wasn’t about to go into
//them.
-- Ну... -- протягнув Гаррі, доки намагався вигадати, як описати цей конкретний
термін маґлівської науки. -- Припустімо, ви прийшли на роботу й побачили, 
як ваш колега гамселить свій стіл. Ви думаєте: "`Напевно, він дуже злобна 
людина`". А колега думає про те, як дорогою на роботу хтось штовхнув
його у стіну та ще й нагримав на нього. "`Таке розізлило би __будь-кого__`",
думає він. Коли ми дивимося на інших, то бачимо риси характеру, що пояснюють їхню
поведінку. Проте коли дивимося на себе, то бачимо обставини, що пояснюють нашу
поведінку. Історії людей мають внутрішній сенс для них, зсередини, проте нам не видно 
попередніх подій їхнього життя, вони не майоріють за ними в повітрі. Ми бачимо людей
лише в одній ситуації та не бачимо, якими б вони були за інших обставин. Отже,
фундаментальна помилка атрибуції полягає в тому, що ми пояснюємо незмінними,
сталими рисами те, що було б краще пояснити обставинами й контекстом.

Існували деякі винахідливі досліди, що це підтверджували, проте Гаррі не
збирався розповідати настільки докладно.

// 328
//The witch’s eyebrows drew up beneath her hat’s brim. “I think I understand…”
//Professor McGonagall said slowly. “But what does that have to do with you?”
Брови відьми сховалися за крисами капелюха.

-- Гадаю, я розумію, -- повільно сказала професорка Макґонеґел. -- Проте як
це стосується вас?

// 329
//Harry kicked the brick wall of the alley hard enough to make his foot hurt.
//“People think that I saved them from You-Know-Who because I’m some kind of
//great warrior of the Light.”
Гаррі копнув цегляну стіну провулка достатньо сильно, щоб відчути біль у нозі.

-- Люди вважають, що я врятував їх від Відомо-Кого, адже я якийсь великий воїн
Світла.

// 330
//“The one with the power to vanquish the Dark Lord…” murmured the witch, a
//strange irony leavening her voice.
// hedrok: #пророцтво (028:5929)
-- Той, хто зможе перемогти Темного Лорда... -- пробурмотіла відьма, її голос 
сповнювала дивна іронія.

// 331
//“Yes,” Harry said, annoyance and frustration warring in him, “like I destroyed
//the Dark Lord because I have some kind of permanent, enduring
//destroy-the-Dark-Lord trait. I was fifteen months old at the time! I don’t
//__know__ what happened, but I would __suppose __it had something to
//do with, as the saying goes, contingent environmental circumstances. And
//certainly nothing to do with my personality. People don’t care about
//__me,__ they aren’t even paying attention to __me,__ they want to
//shake hands with a __bad explanation__.” Harry paused, and looked at
//McGonagall. “Do __you__ know what really happened?”
-- Так, -- сказав Гаррі, в якому боролися роздратування й прикрощі, -- ніби я
знищив Темного Лорда тому, що маю якусь незмінну, сталу
рису "`знищувач-Темних-Лордів`". Мені тоді було пʼятнадцять місяців! Я __не
знаю__, що сталося, проте __гадаю__, що це повʼязано, як кажуть, з
непередбаченими зовнішніми обставинами. І, безперечно, не має нічого спільного 
з моєю особистістю. Людям начхати на __мене__, вони навіть не звертають уваги 
на __мене__, вони лише хочуть потиснути руку __поганому поясненню__, -- Гаррі 
зробив паузу й подивився на Макґонеґел. -- А __ви__ знаєте, що сталося насправді?

// 332
//“I __have__ formed an idea…” said Professor McGonagall. “After meeting
//you, that is.”
-- У мене __з’явилося__ припущення... -- сказала професорка Макґонеґел. -- Власне,
вже після зустрічі з вами.

// 333
//“Yes?”
-- І?

// 334
//“You triumphed over the Dark Lord by being more awful than __he __was, and
//survived the Killing Curse by being more terrible than Death.”
-- Ви взяли гору над Темним Лордом, адже ви ще жахливіший за __нього__, і
пережили смертельне закляття, адже ви страшніший за саму смерть.

// 335
//“Ha. Ha. Ha.” Harry kicked the wall again.
-- Ха. Ха. Ха. -- Гаррі знову копнув стіну.

// 336
//Professor McGonagall chuckled. “Let’s get you to Madam Malkin’s next. I fear
//your Muggle clothing may be attracting attention.”
Професорка Макґонеґел хихикнула.

-- Тепер ходімо до крамниці мадам Малкін. Боюся, що увагу привертає ваш
маґлівський одяг.

// 337
//They ran into two more well-wishers along the way.
Дорогою вони натрапили на ще двох доброзичливців.

// 338
//Madam Malkin’s Robes had a genuinely boring shopfront, red ordinary brick, and
//glass windows showing plain black robes within. Not robes that shone or changed
//or spun, or radiated strange rays that seemed to go right through your shirt
//and tickle you. Just plain black robes, that was all you could see through the
//window. The door was propped wide open, as if to advertise that there were no
//secrets here and nothing to hide.
"`Мантії від мадам Малкін`" мали непідробно нудну вітрину: звичайна червона цегла,
скляні вікна, що демонстрували прості чорні мантії. Не мантії, що сяяли, чи
змінювалися, чи крутилися, чи випромінювали дивні промені, які наче проходили
крізь твій одяг і лоскотали тебе, а лише прості чорні мантії. Це все, що можна
було побачити крізь вікно. Широко розчинені двері були підперті й ніби демонстрували,
що всередині немає жодних таємниць, немає чого приховувати.

// 339
//“I’m going to go off for a few minutes while you get fitted for your robes,”
//said Professor McGonagall. “Will you be all right with that, Mr. Potter?”
-- Я відійду на декілька хвилин, доки з вас зніматимуть мірки для мантії, --
сказала професорка Макґонеґел. -- Ви не проти, містере Поттер?

// 340
//Harry nodded. He hated clothes shopping with a fiery passion and couldn’t blame
//the older witch for feeling the same way.
Гаррі кивнув. Він сам пристрасно ненавидів купувати одяг і не міг закидати
старшій відьмі те, що вона поділяла це почуття.

// 341
//Professor McGonagall’s wand came out of her sleeve, tapped Harry’s head
//lightly. “And as you’ll need to be clear to Madam Malkin’s senses, I am
//removing the Obfuscation.”
Паличка професорки Макґонеґел зʼявилася з її рукава й легко торкнулася голови
Гаррі.

-- Я знімаю затьмарення, адже треба, щоб мадам Малкін чітко вас бачила.

// 342
//“Uh…” Harry said. That did worry him a little; he still wasn’t used to the
//‘Harry Potter’ thing.
-- Е... -- сказав Гаррі. Це його трохи турбувало -- він досі не звик до всього
цього "`гарріпоттерства`".

// 343
//“I went to Hogwarts with Madam Malkin,” McGonagall said. “Even then, she was
//one of the most __composed__ people I knew. She wouldn’t turn a hair if
//You-Know-Who himself walked into her shop.” McGonagall’s voice was reminiscent,
//and very approving. “Madam Malkin won’t bother you, and she won’t let anyone
//else bother you.”
-- Я відвідувала Гоґвортс разом з мадам Малкін, -- сказала Макґонеґел. -- Навіть
тоді вона була однією з __найстриманіших__ людей, що я знала. Жодна волосина
на її голові не ворухнеться, навіть якщо сам Відомо-Хто зайде до її крамниці,
-- голос Макґонеґел набув ностальгічності й звучав схвально. -- Мадам Малкін не
надокучатиме вам і не дозволить цього іншим.

// 344
//“Where __are__ you going?” Harry inquired. “Just in case, you know,
//something __does__ happen.”
-- А __куди__ ви йдете? -- запитав Гаррі. -- Просто на випадок, ну знаєте,
якщо щось __станеться__.

// 345
//McGonagall gave Harry a hard look. “I am going __there,__” she said,
//pointing at a building across the street which showed the sign of a wooden keg,
//“and buying a drink, which I desperately need. __You__ are to get fitted
//for your robes, __nothing else__. I will come back to check up on you
//__shortly__, and I __expect__ to find Madam Malkin’s shop still
//standing and not in any way on fire.”
Макґонеґел подивилася на Гаррі суворо.

-- Я йду __туди__, -- сказала вона й вказала на будівлю з іншого боку вулиці,
що мала деревʼяне барильце замість вивіски. -- І куплю чогось випити, мені це зараз
вкрай необхідно. __Ви__ зніматимете мірки для своєї мантії, __нічого більше__. Я
__невдовзі__ повернусь, щоб перевірити, як ви, і я __очікую__, що крамниця мадам
Малкін досі стоятиме на місці, жодним чином не охоплена полумʼям.

// 346
//Madam Malkin was a bustling old woman who didn’t say a word about Harry when
//she saw the scar on his forehead, and she shot a sharp look at an assistant
//when that girl seemed about to say something. Madam Malkin got out a set of
//animated, writhing bits of cloth that seemed to serve as tape measures and set
//to work examining the medium of her art.
// @ medium -> полотно. Зрозуміло комусь?..
Мадам Малкін виявилася метушливою старою жінкою, що не проронила ані слова про
Гаррі, коли побачила шрам на його чолі, й кинула виразний погляд на
помічницю, коли та збиралася щось сказати. Мадам Малкін дістала набір жвавих
клаптиків тканини, що звивалися й, схоже, слугували вимірювальними стрічками, та
заходилася оглядати полотно свого мистецтва.

// 347
//Next to Harry, a pale young boy with a pointed face and __awesomecool__
//blonde-white hair seemed to be going through the final stages of a similar
//process. One of Malkin’s two assistants was examining the white-haired boy and
//the chequerboard-gridded robe he was wearing; occasionally she would tap a
//corner of the robe with her wand, and the robe would loosen or tighten.
Поряд з Гаррі стояв хлопчик із блідим загостреним лицем і __надзвичайно
класним__ білявим волоссям, що, здавалося, проходив останні стадії того ж
процесу. Одна з двох помічниць Малкін оглядала біловолосого хлопця й мантію з
шаховим візерунком, що була на ньому. Подеколи вона торкалася краю мантії своєю
паличкою, і та затягувалася чи ослаблювалася.

// 348
//“Hello,” said the boy. “Hogwarts, too?”
-- Привіт, -- сказав хлопчик. -- Теж до Гоґвортсу?

// 349
//Harry could predict where this conversation was about to go, and he decided in
//a split second of frustration that enough was enough.
Гаррі міг передбачити, куди ця розмова от-от заведе, і, після невеличкого нападу
роздратованності, вирішив, що треба й міру знати.

// 350
//“Good heavens,” whispered Harry, “it couldn’t be.” He let his eyes widen.
//“Your… name, sir?”
-- Святі небеса, -- прошепотів Гаррі, -- не може бути, -- він розширив очі. 
-- Ваше... імʼя, сер?

// 351
//“Draco Malfoy,” said Draco Malfoy, looking slightly puzzled.
-- Драко Мелфой, -- трохи спантеличено відповів Драко Мелфой.

// 352
//“It __is__ you! Draco Malfoy. I - I never thought I’d be so honoured,
//sir.” Harry wished he could make tears come out of his eyes. The others usually
//started crying at around this point.
-- Це __справді__ ви! Драко Мелфой. Я... Я ніколи не думав, що матиму таку честь,
сер, -- Гаррі шкодував, що не може пролити сльозу. Інші в цей момент уже зазвичай 
починали плакати.

// 353
//“Oh,” said Draco, sounding a little confused. Then his lips stretched in a smug
//smile. “It’s good to meet someone who knows his place.”
-- О, -- трохи збентежено сказав Драко. Потім на його обличчі зʼявилася
самовдоволена усмішка. -- Добре зустріти когось, хто знає своє місце.

// 354
//One of the assistants, the one who’d seemed to recognise Harry, made a muffled
//choking sound.
Одна з помічниць -- та, що, видавалося, впізнала Гаррі, -- приглушено хихикнула.

// 355
//Harry burbled on. “I’m delighted to meet you, Mr. Malfoy. Just unutterably
//delighted. And to be attending Hogwarts in your very year! It makes my heart
//swoon.”
Гаррі не вгавав базікати.

-- Я щасливий, що зустрів вас, містере Мелфой. Просто невимовно щасливий. І
відвідувати Гоґвортс у той самий рік, що й ви! Моє серце від того співає.

// 356
//Oops. That last part might have sounded a little odd, like he was flirting with
//Draco or something.
Йой. Останнє речення вийшло дещо чудним, ніби він фліртував з Драко чи що.

// 357
//“And __I__ am pleased to learn that I shall be treated with the respect
//due to the family of Malfoy,” the other boy lobbed back, accompanied by a smile
//such as the highest of kings might bestow upon the least of his subjects, if
//that subject were honest, though poor.
-- А __я__ радий дізнатися, що до мене ставитимуться з належною для родини Мелфоїв
повагою, -- парирував другий хлопець із усмішкою, якою найвищі королі
могли обдаровувати найнижчих зі своїх підданих, якщо ті були вірні, хоч і бідні.

// 358
//Eh… Damn, Harry was having trouble thinking up his next line. Well, everyone
//__did__ want to shake the hand of Harry Potter, so - “When my clothes are
//fitted, sir, might you deign to shake my hand? I should wish nothing more to
//put the capper upon this day, nay, this month, indeed, my whole lifetime.”
Е... Прокляття, Гаррі не міг вигадати наступну репліку. Ну, всі __дійсно__
хотіли потиснути руку Гаррі Поттера, отже...

-- Коли примірювання одягу завершиться, сер, чи удостоїте ви мене рукостискання?
Нічого не зможе перевершити цю подію сьогодні, ба ні, цього місяця, насправді,
протягом усього мого життя.

// 359
//The white-blonde-haired boy glared in return. “And what have __you__ done
//for the Malfoys that entitles you to such a favour?”
Білявий хлопець пильно подивився на нього у відповідь.

-- І що ж __ти__ зробив для Мелфоїв, щоб заслужити право на таку послугу?

// 360
//__Oh, I am so totally trying this routine on the next person who wants to
//shake my hand.__ Harry bowed his head. “No, no, sir, I understand. I’m sorry for
//asking. I should be honoured to clean your boots, rather.”
__О, я безперечно скористаюся цим прийомом на черговому охочому потиснути
мені руку.__ Гаррі схилив голову.

-- Ні, ні, сер, я розумію. Вибачте, що попросив. Радше, честю для мене буде
чистити ваші черевики.

// 361
//“Indeed,” snapped the other boy. His stern face lightened somewhat. “Tell me,
//what House do you think you might be sorted into? I’m bound for Slytherin
//House, of course, like my father Lucius before me. And for you, I’d guess House
//Hufflepuff, or possibly House Elf.”
-- Дійсно, -- кинув інший хлопець. Його суворе обличчя трохи проясніло. --
Скажи мені, до якого гуртожитку, на твою думку, тебе розподілять? Я, звісно,
обовʼязково потраплю до Слизерину, як до того мій батько, Луціус. А ти,
гадаю, потрапиш до Гафелпафу. Чи може до гуртожитку ельфів-домовиків.

// 362
//Harry grinned sheepishly. “Professor McGonagall says that I’m the most
//Ravenclaw person she’s ever seen or heard tell of in legend, so much so that
//Rowena herself would tell me to get out more, whatever __that__ means, and
//that I’ll undoubtedly end up in Ravenclaw House if the hat isn’t screaming too
//loudly for the rest of us to make out any words, end quote.”
Гаррі соромливо посміхнувся.

-- Професорка Макґонеґел каже, що я найбільш рейвенкловська людина з усіх, що
вона колись бачила чи про кого чула в легендах. Настільки, що
навіть сама Ровіна сказала б мені більше бувати зовні, що б __це__ не означало,
і що я безсумнівно опинюся в Рейвенклові, хіба що капелюх кричатиме занадто
голосно й ніхто не зможе розібрати ані слова, кінець цитування.

// 363
//“Wow,” said Draco Malfoy, sounding slightly impressed. The boy gave a sort of
//wistful sigh. “Your flattery was great, or I thought so, anyway - you’d do well
//in Slytherin House, too. Usually it’s only my father who gets that sort of
//grovelling. I’m __hoping__ the other Slytherins will suck up to me now I’m
//at Hogwarts… I guess this is a good sign, then.”
-- Овва, -- сказав Драко Мелфой і, схоже, був трохи вражений. Хлопець 
задумливо зітхнув. -- Твої лестощі були чудовими, чи принаймні мені
так здалося, хай там як, ти би підійшов і для Слизерину. Зазвичай так плазують
лише перед батьком. __Сподіваюся__, що інші слизеринці
підлещуватимуться до мене тепер, коли я в Гоґвортсі... Принаймні, думаю,
це був хороший знак.

// 364
//Harry coughed. “Actually, sorry, I’ve got no idea who you are really.”
Гаррі кашлянув.

-- Насправді, вибач, я й гадки не маю, хто ти взагалі такий.

// 365
//“__Oh come on!__” the boy said with fierce disappointment. “Why’d you go
//and do that, then?” Draco’s eyes widened with sudden suspicion. “And how do you
//__not__ know about the Malfoys? And what are those __clothes__ you’re
//wearing? Are your parents __Muggles?__”
-- __Ой, облиш!__ -- сказав хлопець з явним розчаруванням. -- Чого ж ти тоді
так поводився? -- очі Драко розширилися від раптової підозри. -- І як ти
можеш __не знати__ про Мелфоїв? І що це за __одяг__ на тобі? Твої батьки що,
__маґли__?

// 366
//“Two of my parents are dead,” Harry said. His heart twinged. When he put it
//that way - “My other two parents are Muggles, and they’re the ones that raised
//me.”
-- Двоє з моїх батьків померли, -- сказав Гаррі. Його серце защемило. Але якщо вже 
так це формулювати, -- інші двоє моїх батьків маґли, саме вони мене виховали.

// 367
//“__What?__” said Draco. “Who __are__ you?”
-- __Що__? -- вигукнув Драко. -- __Хто__ ти?

// 368
//“Harry Potter, pleased to meet you.”
-- Гаррі Поттер, радий знайомству.

// 369
//“__Harry Potter?__” gasped Draco. ”__The__ Harry -” and the boy cut
//off abruptly.
-- __Гаррі Поттер?__ -- роззявив рота Драко. -- __Той самий__ Гаррі... --
хлопець раптом обірвав себе.

// 370
//There was a brief silence.
Запанувала недовга тиша.

// 371
//Then, with bright enthusiasm, “Harry Potter? __The__ Harry Potter? Gosh,
//I’ve always wanted to meet you!”
Потім, з радісним ентузіазмом:

-- Гаррі Поттер? __Той самий__ Гаррі Поттер? Боже, я завжди хотів зустрітися
з тобою!

// 372
//Draco’s attendant emitted a sound like she was strangling but kept on with her
//work, lifting Draco’s arms to carefully remove the chequered robe.
Дівчина, що обслуговувала Драко, видала звук, ніби задихається, проте не
зупинила роботи й підняла руки Драко, щоб обережно зняти картату мантію.

// 373
//“Shut up,” Harry suggested.
-- Стули пельку, -- запропонував Гаррі.

// 374
//“Can I have your autograph? No, wait, I want a picture with you first!”
-- Можна взяти в тебе автограф? Ні, зажди, спочатку я хочу світлину з тобою!

// 375
//“Shut__up__shut__up__shut__up.__”
-- Стули-__пельку__-стули-__пельку__-стули-__пельку__.

// 376
//“I’m just so __delighted__ to meet you!”
-- Я такий __щасливий__, що зустрів тебе!

// 377
//“Burst into flames and die.”
-- Згори в полум'ї та вмри.

// 378
//“But you’re Harry Potter, the glorious saviour of the wizarding world!
//Everyone’s hero, Harry Potter! I’ve always wanted to be just like you when I
//grow up so I can -”
-- Але ж ти Гаррі Поттер, славетний рятівник чаклунського світу! Герой для
кожного, Гаррі Поттер! Я завжди хотів стати таким, як ти, коли виросту, щоб мати 
можливість...

// 379
//Draco cut off the words in mid-sentence, his face freezing in absolute horror.
Драко замовк на півслові, його обличчя застигло у виразі цілковитого жаху.

// 380
//Tall, white-haired, coldly elegant in black robes of the finest quality. One
//hand gripping a silver-handled cane which took on the character of a deadly
//weapon just by being in that hand. His eyes regarded the room with the
//dispassionate quality of an executioner, a man to whom killing was not painful,
//or even deliciously forbidden, but just a routine activity like breathing.
Високий, біловолосий, стримано елегантний у чорній мантії найвищого ґатунку. Одна
рука стискала ціпок зі срібним держаком, що скидався на смертельну зброю вже хоча б
через те, що був у цій руці. Його очі роздивлялися кімнату байдужим
поглядом ката, людини, для якої вбивство не було ані болісним, ані спокусливо
забороненим, а лише звичною, наче дихання, діяльністю.

// 381
//That was the man who had, just that moment, strolled in through the open door.
Ось який чоловік щойно пройшов через відкриті двері.

// 382
//“Draco,” said the man, low and very angry, “__what__ are you
//__saying?__”
-- Драко, -- сказав цей чоловік тихо й дуже розлючено, -- __що__ ти таке __кажеш__?

// 383
//In one split second of sympathetic panic, Harry formulated a rescue plan.
За долю секунди співчутливої паніки Гаррі вигадав рятівний план.

// 384
//“Lucius Malfoy!” gasped Harry Potter. “__The__ Lucius Malfoy?”
-- Луціус Мелфой! -- роззявив рота Гаррі Поттер. -- __Той самий__ Луціус
Мелфой?

// 385
//One of Malkin’s assistants had to turn away and face the wall.
Одній з помічниць Малкін довелося відвернутися до стіни.

// 386
//Coolly murderous eyes regarded him. “Harry Potter.”
Спокійні очі вбивці розглядали його.

-- Гаррі Поттер.

// 387
//“I am so, so honoured to meet you!”
-- Це така, така честь, зустріти вас!

// 388
//The dark eyes widened, shocked surprise replacing deadly threat.
Темні очі розширилися, смертельну загрозу замінив приголомшений подив.

// 389
//“Your son has been telling me __all__ about you,” Harry gushed on, hardly
//even knowing what was coming out of his mouth but just talking as fast as
//possible. “But of course I knew about you all before then, everyone knows about
//you, the great Lucius Malfoy! The most honoured laureate of all the House of
//Slytherin, I’ve been thinking about trying to get into Slytherin House myself
//just because I heard you were in it as a child -”
-- Ваш син мені __все__ про вас розповів, -- просторікував Гаррі, ледь
усвідомлюючи, що лине з його рота, аби говорити якомога швидше. -- Проте, авжеж, я
знав був про вас усе й раніше, всі знають про вас, великого Луціуса Мелфоя!
Найшанованішого з усіх випускників гуртожитку Слизерин. Я сам збираюся спробувати
потрапити до Слизерину лише через те, що я чув, що ви навчалися там дитиною...

// 390
//“__What are you saying, Mr. Potter?__” came a near-scream from outside the
//shop, and Professor McGonagall burst in a second later.
-- __Що ви таке кажете, містере Поттер?__ -- почувся майже крик ззовні крамниці,
і професорка Макґонеґел залетіла секундою пізніше.

// 391
//There was such pure horror on her face that Harry’s mouth opened automatically,
//and then blocked on nothing-to-say.
На її обличчі був настільки щирий жах, що Гаррі автоматично відкрив рота,
але потім затнувся на нема-чого-сказати.

// 392
//“Professor McGonagall!” cried Draco. “Is it really you? I’ve heard so much
//about you from my father, I’ve been thinking of trying to get Sorted into
//Gryffindor so I can -”
-- Професорко Макґонеґел! -- вигукнув Драко. -- Це справді ви? Я так багато чув
про вас від батька, я навіть думав спробувати зробити так, щоб мене відсортували до
Ґрифіндору, бо тоді я зможу...

// 393
//“__What?__” bellowed Lucius Malfoy and Professor McGonagall in perfect
//unison, standing side-by-side. Their heads swivelled to look at each other in
//duplicate motions, and then the two recoiled from one another as though
//performing a synchronised dance.
-- __Що?__ -- заволали Луціус Мелфой і професорка Макґонеґел у досконалому 
унісоні, стоячи пліч-о-пліч. Їхні голови повільно повернулися у дзеркальному русі, щоб
подивитися одне на одного, а потім обидвоє відскочили 
в протилежні боки, ніби виконували синхронний танець.

// 394
//There was a sudden flurry of action as Lucius seized Draco and dragged him out
//of the shop.
Далі Луціус раптово схопив Драко й виволочив його з крамниці.

// 395
//And then there was silence.
А потім запала тиша.

// 396
//In Professor McGonagall’s left hand lay a small drinking-glass, tilted over to
//one side in the forgotten rush, now slowly dripping drops of alcohol into the
//tiny puddle of red wine that had appeared on the floor.
У лівиці Макґонеґел тримала невеличкий келих, який у забутті поквапу перехилила набік. 
Краплі алкоголю падали до крихітної калюжки червоного вина,
що була зʼявилася на підлозі.

// 397
//Professor McGonagall strode forward into the shop until she was opposite Madam
//Malkin.
Професорка Макґонеґел широкими кроками перетнула крамницю й стала навпроти
мадам Малкін.

// 398
//“Madam Malkin,” said Professor McGonagall, her voice calm. “What has been
//happening here?”
-- Мадам Малкін, -- спокійним голосом запитала професорка Макґонеґел. -- Що тут
відбулося?

// 399
//Madam Malkin looked back silently for four seconds, and then cracked up. She
//fell against the wall, wheezing out laughter, and that set off both of her
//assistants, one of whom fell to her hands and knees on the floor, giggling
//hysterically.
Мадам Малкін тихо розглядала її чотири секунди, а потім розреготалася. Вона
припала до стіни, важко дихаючи від сміху, і цим наче дала волю обом своїм
помічницям, одна з яких впала на коліна й руки на підлогу й істерично
захихотіла.

// 400
//Professor McGonagall slowly turned to look at Harry, her expression chilly. “I
//leave you alone for six minutes. Six minutes, Mr. Potter, by the very clock.”
Професорка Макґонеґел повільно обернулася, щоб дуже холодно поглянути на Гаррі.

-- Я залишила вас самого на шість хвилин. Рівно на шість хвилин, містере Поттер.

// 401
//“I was only joking around,” Harry protested, as the sounds of hysterical
//laughter went on nearby.
-- Я лише трохи пожартував, -- запротестував Гаррі, доки звуки істеричного сміху
поряд не вгавали.

// 402
//“__Draco Malfoy said in front of his father that he wanted to be sorted
//into Gryffindor!__ Joking around __isn’t enough__ to __do __that!”
//Professor McGonagall paused, visibly taking breaths. “What part of ‘get fitted
//for robes’ sounded to you like __please cast a Confundus Charm on the
//entire universe!__”
-- __Драко Мелфой сказав у присутності свого батька, що хотів би потрапити до
Ґрифіндору!__ Трохи пожартувати __не достатньо__, щоб __зробити__ таке! --
професорка Макґонеґел зупинилася, було видно, як вона переводить подих. -- Яка
частина фрази "`зніміть мірки для мантії`" прозвучала як __будь ласка,
накладіть закляття "`Конфундус`" на цілий всесвіт__?

// 403
//“He was in a situational context where those actions made internal sense -”
-- Він був у ситуативному контексті, в якому ці дії мали внутрішній сенс...

// 404
//“No. Don’t explain. I don’t want to know what happened in here, ever. Whatever
//dark power inhabits you, it is __contagious,__ and I don’t want to end up
//like poor Draco Malfoy, poor Madam Malkin and her two poor assistants.”
-- Ні. Не пояснюйте. Я не хочу знати, що тут сталося, ніколи. Хай яка темна
сила живе всередині вас, вона __заразна__, а я не хочу скінчити, як
бідолашний Драко Мелфой, бідолашна мадам Малкін і її дві бідолашні помічниці.

// 405
//Harry sighed. It was clear that Professor McGonagall wasn’t in a mood to listen
//to reasonable explanations. He looked at Madam Malkin, who was still wheezing
//against the wall, and Malkin’s two assistants, who had now __both__ fallen
//to their knees, and finally down at his own tape-measure-draped body.
Гаррі зітхнув. Було очевидно, що професорка Макґонеґел наразі не готова слухати
обґрунтованих пояснень. Він подивився на мадам Малкін, що досі сміялася біля стіни,
і на двох її помічниць, що тепер __обидві__ впали колінами на підлогу, і, нарешті,
на власне обплутане вимірювальними стрічками тіло.

// 406
//“I’m not quite done being fitted for clothes,” Harry said kindly. “Why don’t
//you go back and have another drink?”
-- Я ще не завершив примірювання одягу, -- приязно сказав Гаррі. -- Чому б
вам не повернутися й не випити ще?
