// 3637
//== Bayes's Theorem
== Розділ 20. Теорема Баєса

// 3638
//That which can be destroyed by the Rowling should be.
Те, що здатна знищити Ролінґ, має бути знищено.
// копія 23:4518

***

// 3639
//Harry stared up at the gray ceiling of the small room, from where he lay on the
//portable yet soft bed that had been placed there. He’d eaten quite a lot of
//Professor Quirrell’s snacks - intricate confections of chocolate and other
//substances, dusted with sparkling sprinkles and jeweled with tiny sugar gems,
//looking highly expensive and proving, in fact, to be quite tasty. Harry hadn’t
//felt the least bit guilty about it either, __this__ he had
//__earned__.
Гаррі лежав на мʼякому, хоч і розкладному, ліжку в маленькій кімнаті й
витріщався на сіру стелю. Він зʼїв чимало закусок професора Квірела --
обсипані блискучими смужками, прикрашені дрібними перлинами цукру, майстерно
складні ласощі з шоколаду й інших складників. Вони здавалися вкрай дорогими та
виявилися й справді доволі смачними. Гаррі не мав жодних докорів сумління з
цього приводу -- __це__ він __заслужив__.

// 3640
//He hadn’t tried to sleep. Harry had a feeling that he wouldn’t like what
//happened when he closed his eyes.
Він навіть не намагався заснути. Гаррі мав підозри, що йому не сподобається те,
що станеться, якщо він заплющить очі.

// 3641
//He hadn’t tried to read. He wouldn’t have been able to focus.
Він не намагався читати -- не зміг би зосередитися.

// 3642
//Funny how Harry’s brain just seemed to keep on running and running, never
//shutting down no matter how tired it got. It got stupider but it refused to
//__switch off.__
Цікаво, що мозок Гаррі працював і працював, і ніколи не зупинявся, хай яким
стомленим він ставав. Він ставав дурнішим, проте відмовлявся __вимикатися__.

// 3643
//But there was, there really and truly was a feeling of triumph.
У Гаррі було справді щире відчуття тріумфу.

// 3644
//Anti-Dark-Lord-Harry program, +1 point didn’t __begin__ to cover it. Harry
//wondered what the Sorting Hat would say __now__, if he could put it on his
//head.
Думка "`програма ні-Темному-Лордові-Гаррі, +1 бал`" навіть __близько__ не могла передати
цього. Гаррі було цікаво, що сказав би Сортувальний Капелюх __зараз__, якби
опинився в нього на голові.

// 3645
//No __wonder__ Professor Quirrell had accused Harry of heading down the
//path of a Dark Lord. Harry had been too slow on the uptake, he should have seen
//the parallel right away -
__Не дивно__, що професор Квірел звинувачував був його в тому, що він йде
стежкою Темного Лорда. Як же повільно до нього доходило, він мав побачити
паралелі одразу...

// 3646
//__Understand that the Dark Lord did not win that day. His goal was to
//learn martial arts, and yet he left without a single lesson.__
// копія 19:3481
__Зрозумійте, що Темний Лорд не переміг того дня. Його метою було навчитися
бойових мистецтв, і втім він пішов без жодного уроку.__

// 3647
//Harry had entered the Potions class with the intent to learn Potions. He’d left
//without a single lesson.
Гаррі прийшов був до кабінету настійок з наміром вивчати зілля й настійки. І
не отримав жодного уроку.

// 3648
//And Professor Quirrell had heard, and understood with frightening precision,
//and reached out and yanked Harry off that path, the path that led to his
//becoming a copy of You-Know-Who.
А професор Квірел почув про це, лякаюче точно все зрозумів, втрутився й
зіштовхнув Гаррі зі шляху, що призвів би до того, що він стане копією
Відомо-Кого.

// 3649
//There was a knock at the door. “Classes are over,” said Professor Quirrell’s
//quiet voice.
У двері постукали.

-- Заняття завершено, -- тихо сказав професор Квірел.

// 3650
//Harry approached the door and found himself suddenly nervous. Then the tension
//diminished as he heard Professor Quirrell’s footsteps moving away from the
//door.
Гаррі наблизився до дверей і відчув раптове занепокоєння. Після чого напруга
почала спадати, коли він почув, як професор Квірел відходить від дверей.

// 3651
//__What on Earth is that about? Is it what’s going to get him fired
//eventually?__
__Що це в біса таке? Це те, через що його зрештою звільнять?__

// 3652
//Harry opened the door, and saw that Professor Quirrell was now waiting several
//bodylengths away.
Гаррі відчинив двері й побачив, що тепер професор Квірел стояв щонайменше в
пʼяти метрах від нього.

// 3653
//__Does Professor Quirrell feel it too?__
__Професор Квірел теж це відчуває?__

// 3654
//They walked across the now-deserted stage to Professor Quirrell’s desk, which
//Professor Quirrell leaned on; and Harry, as before, stopped short of the dais.
Вони перетнули тепер вже порожню платформу й підійшли до стола професора
Квірела, на який він сперся. Гаррі, як і раніше, зупинився поряд із
підвищенням.

// 3655
//“So,” Professor Quirrell said. There was a friendly sense about him somehow,
//even though his face still kept its usual seriousness. “What was it you wanted
//to talk to me about, Mr. Potter?”
-- Отже, -- сказав професор Квірел. Гаррі якимось чином відчував його
дружність, хоча його обличчя не втрачало звичайної серйозності. -- Про що ви
хотіли зі мною поговорити, містере Поттер?

// 3656
//__I have a mysterious dark side.__ But Harry couldn’t just blurt it out
//like that.
__У мене є таємнича темна сторона.__ Але Гаррі не міг просто випалити це.

// 3657
//“Professor Quirrell,” Harry said, “am I off the path to becoming a Dark Lord,
//now?”
-- Професоре Квірел, -- сказав Гаррі, -- тепер я зійшов зі шляху, наприкінці
якого я стану темним лордом?

// 3658
//Professor Quirrell looked at Harry. “Mr. Potter,” he said solemnly, with only a
//slight grin, “a word of advice. There is such a thing as a performance which is
//too perfect. Real people who have just been beaten and humiliated for fifteen
//minutes do not stand up and graciously forgive their enemies. It is the sort of
//thing you do when you’re trying to __convince__ everyone you’re not Dark,
//not -”
Професор Квірел поглянув на Гаррі.

-- Містере Поттер, -- урочисто сказав він, лише з ледь помітною посмішкою, --
дам вам невеличку пораду. Є така річ, як надто бездоганний виступ. Справжні
люди, що їх тільки-но били й принижували пʼятнадцять хвилин, не підіймаються й
не пробачають милостиво своїх ворогів. Таке роблять люди, які хочуть
__переконати__ всіх, що вони не Темні, не...

// 3659
//“__I can’t believe this! You can’t have every possible observation
//confirm your theory!__”
-- __Я не можу в це повірити! Не можуть всі без винятку спостереження
підтверджувати вашу теорію!__

// 3660
//“And that was a __trifle__ too much indignation.”
-- А тут було __трошки__ забагато обурення.

// 3661
//“__What on Earth do I have to do to convince you?__”
-- __Що, трясця, я повинен зробити, щоб переконати вас?__

// 3662
//“To convince me that you harbor no ambitions of becoming a Dark Lord?” said
//Professor Quirrell, now looking outright amused. “I suppose you could just
//raise your right hand.”
-- Переконати, що ви не плекаєте планів стати Темним Лордом? -- запитав
професор Квірел, тепер відверто задоволений. -- Гадаю, ви можете просто підняти
правицю.

// 3663
//“What?” Harry said blankly. “But I can raise my right hand whether or not I -”
//Harry stopped, feeling rather stupid.
-- Що? -- тупо запитав Гаррі. -- Але я можу підняти правицю, незважаючи на те, чи...

Він зупинився, почуваючи себе дурнем.

// 3664
//“Indeed,” said Professor Quirrell. “You can just as easily do it either way.
//There is nothing you can do to convince me because I would know that was
//exactly what you were trying to do. And if we are to be even more precise, then
//while I suppose it is barely possible that perfectly good people exist even
//though I have never met one, it is nonetheless __improbable__ that someone
//would be beaten for fifteen minutes and then stand up and feel a great surge of
//kindly forgiveness for his attackers. On the other hand it is __less__
//improbable that a young child would imagine this as the __role to play__
//in order to convince his teacher and classmates that he is not the next Dark
//Lord. The import of an act lies not in what that act __resembles on the
//surface,__ Mr. Potter, but in the states of mind which make that act more or
//less probable.”
-- Дійсно. Ви можете легко зробити це в будь-якому разі. Ви не можете зробити
нічого, що переконає мене, бо я знатиму, що саме це ви й намагаєтеся зробити.
І якщо вже бути зовсім точним, хоча я, гадаю, і можу припустити існування цілковито
добрих людей, хоч і не зустрічав таких, але все одно __малоймовірно__, щоб
когось били пʼятнадцять хвилин, а він підвівся й відчув жагу щиросердно пробачити
нападників. З іншого боку, __більш імовірно__, що дитина гадає, що такі дії
відповідають __ролі, яку треба зіграти__, щоб переконати вчителя й
однокласників, що він не наступний темний лорд. Важливе не __безпосереднє
враження__ від вчинку, містере Поттер, а те, які стани свідомості роблять той чи
інший вчинок більш чи менш імовірним.

// 3665
//Harry blinked. He’d just had the dichotomy between the representativeness
//heuristic and the Bayesian definition of evidence explained to him by a wizard.
// hedrok: representativeness heuristic 
//         https://uk.wikipedia.org/wiki/Когнітивне_упередження
// Bayesian definition of evidence
// mykolahnid: https://uk.wikipedia.org/wiki/Баєсове_виведення 
// свідчення (англ. evidence) відповідає новим 
// даним, що не використовувалися при обчисленні апріорної ймовірності.
// плюс, це не визначення свідчення, це опис
// того, як саме трактувати отримане свідчення для того, щоб зробити висновок.
// ще можна вибрати між словами інтерпретація і тлумачення.
Гаррі кліпнув очима. Чарівник щойно розʼяснив йому дихотомію між
евристикою репрезентативності й Баєсовим трактуванням свідчення.

// 3666
//“But then again,” said Professor Quirrell, “anyone can want to impress their
//friends. That need not be Dark. So without it being any kind of admission, Mr.
//Potter, tell me honestly. What thought was in your mind at the moment when you
//forbade any vengeance? Was that thought a true impulse to forgiveness? Or was
//it an awareness of how your classmates would see the act?”
-- Але знову ж таки, -- сказав професор Квірел, -- будь-хто може хотіти вразити
своїх друзів. Це не обовʼязково щось темне. Отже, це не вважатиметься
визнанням, містере Поттер, скажіть мені чесно. Про що ви думали в ту мить, коли
заборонили помсту? Це був справжній порив до пробачення? Чи свідома оцінка
того, як ваші однокласники відреагують на цей вчинок?

// 3667
//__Sometimes we make our own phoenix song.__
__Подеколи ми самі створюємо свою пісню фенікса.__

// 3668
//But Harry didn’t say it out loud. It was clear that Professor Quirrell wouldn’t
//believe him, and would probably respect him less for trying to utter such a
//transparent lie.
Але Гаррі не сказав цього вголос. Було очевидно, що професор Квірел не повірить
йому, і, мабуть, почне поважати Гаррі трохи менше через таку незграбну спробу
збрехати.

// 3669
//After a few moments of silence, Professor Quirrell smiled with satisfaction.
//“Believe it or not, Mr. Potter,” said the professor, “you need not fear me for
//having discovered your secret. I am __not__ going to tell you to give up
//on becoming the next Dark Lord. If I could turn back the hands of time and
//somehow remove that ambition from the mind of my child self, the self of this
//present time would not benefit from the alteration. For as long as I thought
//that was my goal, it drove me to study and learn and refine myself and become
//stronger. We become what we are meant to be by following our desires wherever
//they lead. That is the insight of Salazar. Ask me to show you to the library
//section which holds those same books I read as a thirteen-year-old, and I will
//happily lead the way.”
Після нетривалої тиші професор Квірел задоволено всміхнувся.

-- Вірте чи ні, містере Поттер, вам не варто хвилюватися через те, що я викрив
вашу таємницю. Я __не збираюся__ радити вам кидати мрію стати наступним Темним
Лордом. Якби я міг повернути стрілки часу і якимось чином вилучити це прагнення з
молодого себе, то сучасний я не отримав би від цього жодних переваг. Доки я
вважав це моєю метою, це змушувало мене вчитися, вдосконалювати себе й
ставати сильнішим. Ми стаємо тими, ким маємо бути, коли йдемо за своїми
бажаннями, хай куди вони ведуть. Це мудрість Салазара. Попросіть мене
показати вам секцію бібліотеки з книжками, що я читав у тринадцять років, і я
із задоволенням проведу вас.

// 3670
//“For the love of crap,” Harry said, and sat down on the hard marble floor, and
//then lay back on the floor, staring up at the distant arches of the ceiling. It
//was as close as he could come to collapsing in despair without hurting himself.
// hedrok: @ for the love of crap
-- Заради всього святого, -- сказав Гаррі й різко сів на тверду мармурову
підлогу, а потім ліг на спину й почав роздивлятися далекі арки стелі.

Це було найближче до "`падіння від розпачу`", що він міг зробити без шкоди для
себе.

// 3671
//“Still too much indignation,” observed Professor Quirrell. Harry wasn’t looking
//but he could hear the suppressed laughter in the voice.
-- Досі забагато обурення, -- зазначив професор Квірел. Гаррі не дивився на
нього, проте чув стриманий сміх у його голосі.

// 3672
//Then Harry realized.
А потім Гаррі зрозумів.

// 3673
//“Actually, I think I know what’s confusing you here,” Harry said. “That was
//what I wanted to talk to you about, in fact. Professor Quirrell, I think that
//what you’re seeing is my mysterious dark side.”
-- Гадаю, я знаю, що вас ввело в оману, -- сказав він. -- Власне, саме про
це я й хотів поговорити з вами. Професоре Квірел, гадаю те, що ви бачите у мені,
це моя таємнича темна сторона.

// 3674
//There was a pause.
Запала тиша.

// 3675
//“Your… dark side…”
-- Ваша... Темна сторона...

// 3676
//Harry sat up. Professor Quirrell was regarding him with one of the strangest
//expressions Harry had seen on anyone’s face, let alone anyone as dignified as
//Professor Quirrell.
Гаррі підвівся і сів. Професор Квірел розглядав його з найдивнішим виразом обличчя з усіх,
що Гаррі бачив у будь-кого, не кажучи вже про поважного професора Квірела.

// 3677
//“It happens when I get angry,” Harry explained. “My blood runs cold, everything
//gets cold, everything seems perfectly clear… In retrospect it’s been with me
//for a while - in my first year of Muggle school, someone tried to take away my
//ball during recess and I held it behind my back and kicked him in the solar
//plexus which I’d read was a weak point, and the other kids didn’t bother me
//after that. And I bit a math teacher when she wouldn’t accept my dominance. But
//it’s only just recently that I’ve been under enough stress to notice that it’s
//an actual, you know, mysterious dark side, and not just an anger management
//problem like the school psychologist said. And I don’t have any super magical
//powers when it happens, that was one of the first things I checked.”
// копія 6:581 anger management problem
-- Це відбувається, коли я злюся, -- пояснив Гаррі. -- Моя кров холоне, усе
холоднішає, усе починає здаватися цілковито ясним... Тепер зрозуміло, що вона
давно зі мною -- у першому класі маґлівської школи хтось намагався забрати мій
мʼяч на перерві. Тоді я, сховавши мʼяч за спину, вдарив його ногою у сонячне
сплетіння, бо читав був, що це слабке місце. Інші діти більше не займали мене.
І ще я вкусив учительку з математики, коли та не визнала моє домінування. Але
лише нещодавно я перебував під достатнім тиском, щоб помітити, що це справжня,
ну знаєте, таємнича темна сторона, а не просто проблеми з керуванням гнівом, як
казав шкільний психолог. І в мене немає жодних надзвичайних магічних
здібностей, коли таке трапляється, -- це було ледве не перше, що я перевірив.

// 3678
//Professor Quirrell rubbed his nose. “Let me think about this,” he said.
Професор Квірел потер носа.

-- Дозвольте мені це обміркувати, -- сказав він.

// 3679
//Harry waited in silence for a full minute. He used that time to stand up, which
//was more difficult than he had expected.
Гаррі чекав у тиші цілу хвилину. Він скористався цим часом, щоб підвестися. Це
виявилося складніше, ніж він очікував.

// 3680
//“Well,” Professor Quirrell said after a while. “I suppose there __was__
//something you could say that would convince me.”
-- Ну, -- сказав професор Квірел за деякий час. -- Гадаю, ви __таки могли__
сказати щось, що мене переконає.

// 3681
//“I __have__ already guessed that my dark side is really just another part
//of me and that the answer isn’t to never become angry but to learn to stay in
//control by accepting it, I’m not dumb or anything and I’ve seen this story
//enough times to know where it’s going, but it’s hard and you seem like the
//person to help me.”
-- Я __вже__ зрозумів, що моя темна сторона -- це лише інша частина мене, і що
рішення не в тому, щоб ніколи не злитися, а в тому, щоб навчитися контролювати
та прийняти її. Я не якийсь тупак, і я бачив цю історію достатньо разів, щоб
знати, до чого все йде. Проте це складно, і мені здається, що ви можете мені
допомогти.

// 3682
//“Well… yes… very perspicacious of you, Mr. Potter, I must say… that side of you
//is, as you seem to have already surmised, your intent to kill, which as you say
//is a part of you…”
-- Ну... так... мушу визнати, це дуже проникливо з вашого боку, містере Поттер...
Ця ваша сторона, як ви, видається, вже здогадалися, -- це ваша
готовність убити, і, як ви кажете, це частина вас...

// 3683
//“And needs to be trained,” Harry said, completing the pattern.
// hedrok: @ completing the pattern
-- І її треба тренувати, -- сказав Гаррі, ставлячи крапку над і.

// 3684
//“And needs to be trained, yes.” That strange expression was still on Professor
//Quirrell’s face. “Mr. Potter, if you truly do not wish to be the next Dark
//Lord, then what was the ambition which the Sorting Hat tried to convince you to
//abandon, the ambition for which you were Sorted into Slytherin?”
-- І її треба тренувати, так, -- обличчя професора Квірела досі було доволі
дивним. -- Містере Поттер, якщо ви й справді не бажаєте бути наступним Темним
Лордом, то яке прагнення Сортувальний Капелюх намагався переконати вас
покинути, прагнення, через яке вас розподілили до Слизерину?

// 3685
//“I was Sorted into __Ravenclaw!__”
-- Мене розподілили до __Рейвенклову__!

// 3686
//“Mr. Potter,” said Professor Quirrell, now with a much more usual-looking dry
//smile, “I know you are accustomed to everyone around you being a fool, but
//please do not mistake me for one of them. The likelihood that the Sorting Hat
//would play its first prank in eight hundred years while it was upon your head
//is so small as to not be worth considering. I suppose it is barely possible
//that you snapped your fingers and invented some simple and clever way to defeat
//the anti-tampering spells upon the Hat, though I myself can think of no such
//method. But by far the most probable explanation is that Dumbledore decided he
//was not happy with the Hat’s choice for the Boy-Who-Lived. This is evident to
//anyone with the tiniest smidgin of common sense, so your secret is safe at
//Hogwarts.”
-- Містере Поттер, -- сказав професор Квірел, тепер з більш звичною сухою
посмішкою, -- я знаю, ви звикли, що навколо вас самі дурні, проте, будь ласка,
не записуйте мене до їхніх лав. Імовірність того, що Сортувальний Капелюх розіграє
когось уперше за вісімсот років саме на вашій голові, настільки низька, що її
навіть розглядати не варто. Гадаю, ледь можливо, що ви клацнули пальцями й
винайшли якийсь простий і розумний спосіб перемогти антишахрайські закляття на
Капелюсі, хоча сам я не можу вигадати такого методу. Але є значно ймовірніше
пояснення: Дамблдор вирішив, що йому не до вподоби вибір Капелюха для
Хлопчика-Що-Вижив. Це очевидно для будь-кого з найдрібнішою дещицею клепки в
голові, тобто вашій таємниці в Гоґвортсі нічого не загрожує.

// 3687
//Harry opened his mouth, then closed it again with a feeling of complete
//helplessness. Professor Quirrell was wrong, but wrong in such a convincing way
//that Harry was starting to think that it simply __was__ the rational
//judgment given the evidence available to Professor Quirrell. There were times,
//never __predictable__ times but still sometimes, when you would get
//improbable evidence and the best knowable guess would be wrong. If you had a
//medical test that was only wrong one time in a thousand, sometimes it would
//still be wrong anyway.
Гаррі розкрив рота, а потім знову його закрив, відчуваючи повну безпорадність.
Професор Квірел помилявся, проте так переконливо помилявся, що Гаррі починав
думати, що це просто __справді був__ раціональний висновок на основі свідчень,
що були доступні професорові Квірелу. Траплялося, ніколи не можна було
__передбачити__ коли, проте іноді траплялося, що ви отримуєте малоймовірне свідчення,
і найліпший з відомих здогадів буде помилковим. Якщо ви проводитимете медичний
тест, що помиляється лише один раз на тисячу, він все одно подеколи помилятиметься.

// 3688
//“Can I ask you never to repeat what I’m about to say?” said Harry.
-- Можу я попросити вас ніколи не повторювати те, що я зараз скажу? --
запитав Гаррі.

// 3689
//“Absolutely,” said Professor Quirrell. “Consider me asked.”
-- Безсумнівно. Вважайте, що попросили.

// 3690
//Harry wasn’t a fool either. “Can I consider you to have said yes?”
Гаррі теж не був дурнем.

-- Чи можу я вважати, що ви погодилися?

// 3691
//“Very good, Mr. Potter. You may indeed so consider.”
-- Дуже добре, містере Поттер. Ви й справді можете так вважати.

// 3692
//“__Professor Quirrell -__”
-- __Професоре Квірел...__

// 3693
//“I won’t repeat what you’re about to say,” Professor Quirrell said, smiling.
-- Я не повторюватиму того, що ви зараз скажете, -- з усмішкою сказав професор
Квірел.

// 3694
//They both laughed, then Harry turned serious again. “The Sorting Hat did seem
//to think I was going to end up as a Dark Lord unless I went to Hufflepuff,”
//Harry said. “But I don’t __want__ to be one.”
Вони вдвох посміялися, а потім Гаррі знов став серйозним.

-- Сортувальний Капелюх вважав, що я стану Темним Лордом, якщо не піду до
Гафелпафу. Проте я __не хочу__ ним ставати.

// 3695
//“Mr. Potter…” said Professor Quirrell. “Don’t take this the wrong way. I
//promise you will not be graded on the answer. I only want to know your own,
//honest reply. Why not?”
-- Містере Поттер... Не зрозумійте мене неправильно. Я обіцяю, що ваша
відповідь жодним чином не вплине на ваші оцінки. Я лише хочу почути вашу
власну, чесну відповідь. А чом би й ні?

// 3696
//Harry had that __helpless__ feeling again. __Thou shalt not become a
//Dark Lord__ was such an obvious theorem in his moral system that it was hard to
//describe the actual proof steps. “Um, people would get hurt?”
Гаррі знову відчув __безпорадність__. __Не ставай Темним Лордом__ було
настільки очевидною теоремою в його системі моральних цінностей, що було важко
навести виведення доказу.

-- Ем, люди постраждають?

// 3697
//“Surely you’ve wanted to hurt people,” said Professor Quirrell. “You wanted to
//hurt those bullies today. Being a Dark Lord means that people you __want__
//to hurt get hurt.”
-- Але ж ви безперечно хотіли, щоб люди постраждали, -- сказав професор Квірел.
-- Ви хотіли, щоб ці хулігани сьогодні постраждали. Бути Темним Лордом означає,
що зазнають шкоди __ті__, кому ви хочете завдати шкоди.

// 3698
//Harry floundered for words and then decided to simply go with the obvious.
//“First of all, just because I want to hurt someone doesn’t mean it’s right -”
// hedrok @ flounder тут би сталий вираз
Гаррі борсався в пошуках слів, а потім вирішив просто зупинитися на очевидному.

-- По-перше, лише через те, що я хочу, щоб хтось постраждав, ще не означає, що
це правильно...

// 3699
//“What makes something right, if not your wanting it?”
-- Що ж визначає правильність, якщо не те, що ви цього хочете?

// 3700
//“Ah,” Harry said, “preference utilitarianism.”
// hedrok: @ preference utilitarianism https://en.wikipedia.org/wiki/Preference_utilitarianism
//         українською не знайшов.
-- А, преференційний утилітаризм.

// 3701
//“Pardon me?” said Professor Quirrell.
-- Перепрошую?

// 3702
//“It’s the ethical theory that the good is what satisfies the preferences of the
//most people -”
-- Це етична теорія про те, що добром є те, що задовольняє інтереси
більшості...

// 3703
//“No,” Professor Quirrell said. His fingers rubbed the bridge of his nose. “I
//don’t think that’s quite what I was trying to say. Mr. Potter, in the end
//people all do what they want to do. Sometimes people give names like ‘right’ to
//things they want to do, but how could we possibly act on anything __but__
//our own desires?”
-- Ні, -- сказав професор Квірел. Він потер носа рукою. -- Гадаю, це не зовсім
те, що я хотів сказати, містере Поттер. Зрештою, усі люди роблять те, що
хочуть. Іноді люди дають назви "`правильно`" тому, що вони хочуть робити, проте
як хтось може діяти, __крім як__ за власним бажанням?

// 3704
//“Well, obviously,” Harry said. “I couldn’t __act__ on moral considerations
//if they lacked the power to move me. But that doesn’t mean my wanting to hurt
//those Slytherins has the power to move me __more__ than moral
//considerations!”
-- Ну, очевидно, я __не міг би діяти__ на підставах моралі, якби вона не була
здатна спонукати мене. Але це не означає, що бажання зашкодити тим
слизеринцям має наді мною __більшу__ владу, ніж підстави моралі!

// 3705
//Professor Quirrell blinked.
Професор Квірел моргнув.

// 3706
//“Not to mention,” Harry said, “being a Dark Lord would mean that a lot of
//innocent bystanders got hurt too!”
-- Це вже не згадуючи, -- сказав Гаррі, -- що стати темним лордом також
означало би, що багато невинних перехожих теж постраждали б!

// 3707
//“Why does that matter to you?” Professor Quirrell said. “What have they done
//for you?”
-- Яке вам до них діло? Що вони зробили для вас?

// 3708
//Harry laughed. “Oh, now __that __was around as subtle as __Atlas
//Shrugged.__”
Гаррі розсміявся.

-- О, __це__ приблизно так само тонко, як "`Атлант розправив плечі`".

// 3709
//“Pardon me?” Professor Quirrell said again.
-- Перепрошую? -- знову сказав професор Квірел.

// 3710
//“It’s a book that my parents wouldn’t let me read because they thought it would
//corrupt me, so of course I read it anyway and I was offended they thought I
//would fall for any traps that obvious. Blah blah blah, appeal to my sense of
//superiority, other people are trying to keep me down, blah blah blah.”
-- Це книжка, яку батьки не давали мені читати, бо гадали, що вона мене
зіпсує. Отже я, звісно, все одно прочитав її, і образився, що вони гадали, що я
потраплю в настільки очевидні пастки. Бла бла бла, спроба тиснути на моє
відчуття вищості, решта людей лише гальмують мене, бла бла бла.

// 3711
//“So you’re saying I need to make my traps less obvious?” said Professor
//Quirrell. He tapped a finger on his cheek, looking thoughtful. “I can work on
//that.”
-- Отже ви кажете, що мені треба розставляти менш очевидні пастки? -- сказав
професор Квірел. Він задумливо постукав пальцем по щоці. -- Я можу над цим
попрацювати.

// 3712
//They both laughed.
Вони вдвох посміялися.

// 3713
//“But to stay with the current question,” said Professor Quirrell, “what
//__have__ all these other people done for you?”
-- Але не відходьмо від поточного питання. Що всі ці інші люди __зробили__ для
вас?

// 3714
//“Other people have done __huge__ amounts for me!” Harry said. “My parents
//took me in when my parents died because they were __good people,__ and to
//become a Dark Lord is to betray that!”
-- Інші люди зробили __купу__ всього для мене! Мої батьки взяли мене після
смерті моїх батьків через те, що вони __хороші люди__, і стати темним лордом
означало б зрадити це.

// 3715
//Professor Quirrell was silent for a time.
Деякий час професор Квірел мовчав.

// 3716
//“I confess,” said Professor Quirrell quietly, “when I was your age, that
//thought could not ever have come to me.”
-- Зізнаюся, -- тихо сказав професор Квірел, -- що коли я був у вашому віці,
таке б навіть не спало мені на думку.

// 3717
//“I’m sorry,” Harry said.
-- Мені жаль.

// 3718
//“Don’t be,” said Professor Quirrell. “It was long ago, and I resolved my
//parental issues to my own satisfaction. So you are held back by the thought of
//your parents’ disapproval? Does that mean that if they died in an accident,
//there would be nothing left to stop you from -”
-- Не варто жалю. Це було давно, і я розвʼязав свої проблеми з батьками на
своє задоволення. Отже, ви стримуєтеся через те, що батьки не схвалили б? Чи
означає це, що якби вони випадково померли, то вас ніщо б не зупиняло від того,
щоб...

// 3719
//“No,” Harry said. “Just no. It is their __impulse to kindness__ which
//sheltered me. That impulse is not only in my parents. And that impulse is what
//would be betrayed.”
-- Ні, -- сказав Гаррі. -- Просто ні. Це їхній __порив робити добро__
захистив мене. Такий порив є не лише в моїх батьків. І ось цей порив я
б зрадив.

// 3720
//“In any case, Mr. Potter, you have not answered my original question,” said
//Professor Quirrell finally. “What __is__ your ambition?”
-- Хай там як, містере Поттер, ви не відповіли на моє перше питання, -- нарешті
сказав професор Квірел. -- __Яке__ у вас прагнення?

// 3721
//“Oh,” said Harry. “Um…” He organized his thoughts. “To understand everything
//important there is to know about the universe, apply that knowledge to become
//omnipotent, and use that power to rewrite reality because I have some
//objections to the way it works now.”
-- О. Ем... -- він впорядкував свої думки. -- Зрозуміти все, що важливо знати
про всесвіт, застосувати це знання, щоб стати всемогутнім, і використати цю
силу, щоб змінити реальність, адже в мене є деякі заперечення щодо того, як
усе влаштовано зараз.

// 3722
//There was a slight pause.
Була нетривала тиша.

// 3723
//“Forgive me if this is a stupid question, Mr. Potter,” said Professor Quirrell,
//“but are you __sure__ you did not just confess to wanting to be a Dark
//Lord?”
-- Вибачте, якщо це дурне питання, містере Поттер, але ви __впевнені__, що не
зізналися щойно, що хочете бути темним лордом?

// 3724
//“That’s only if you use your power for evil,” explained Harry. “If you use the
//power for good, you’re a Light Lord.”
-- Це лише якщо використовувати силу на зло, -- пояснив Гаррі. -- А якщо
використовувати силу заради добра, то стаєш світлим лордом.

// 3725
//“I see,” Professor Quirrell said. He tapped his other cheek with a finger. “I
//suppose I can work with that. But Mr. Potter, while the scope of your ambition
//is worthy of Salazar himself, how exactly do you propose to go about it? Is
//step one to become a great fighting wizard, or Head Unspeakable, or Minister of
//Magic, or -”
-- Зрозуміло, -- сказав професор Квірел і постукав пальцем по іншій щоці. --
Гадаю, я можу працювати з цим. Але містере Поттер, хоча обсяг ваших прагнень
гідний самого Салазара, як саме ви пропонуєте цього досягти? Першим кроком буде
стати незрівнянним бойовим магом, чи головою невимовників, чи міністром магії,
чи...

// 3726
//“Step one is to become a scientist.”
-- Першим кроком буде стати вченим.

// 3727
//Professor Quirrell was looking at Harry as if he’d just turned into a cat.
Професор Квірел дивився на Гаррі так, ніби той щойно перетворився на кицьку.

// 3728
//“A scientist,” Professor Quirrell said after a while.
-- Вченим, -- по деякому часі сказав професор Квірел.

// 3729
//Harry nodded.
Гаррі кивнув.

// 3730
//“A __scientist?__” repeated Professor Quirrell.
-- __Вченим?__ -- повторив професор Квірел.

// 3731
//“Yes,” Harry said. “I shall achieve my objectives through the power… of
//__Science!__”
-- Так, -- сказав Гаррі. -- Я досягну своєї мети за допомогою сили...
__науки__!

// 3732
//“A __scientist!__” said Professor Quirrell. There was genuine indignation
//on his face, and his voice had grown stronger and sharper. “You could be the
//best of all my students! The greatest fighting wizard to come out of Hogwarts
//in five decades! I cannot picture you wasting your days in a white lab coat
//doing pointless things to rats!”
-- __Вченим!__ -- вигукнув професор Квірел. На його обличчі було щире обурення,
його голос став сильнішим та жорсткішим. -- Ви могли б стати найкращим з моїх
учнів! Найліпшим з бойових магів, що виходили з Гоґвортсу за пʼять десятиліть!
Я не уявляю, як ви марнуєте дні в білому халаті й робите безґлузді речі зі
щурами!

// 3733
//“Hey!” said Harry. “There’s more to science than that! Not that there’s
//anything __wrong__ with experimenting on rats, of course. But science
//__is__ how you go about understanding and controlling the universe -”
// hedrok: Гаррі живодер :'(
-- Ей! -- сказав Гаррі. -- Наука зовсім не обмежується цим! Не те щоб є щось
__погане__ в тому, щоб експериментувати з пацюками, звісно. Але __саме наука__
дозволяє зрозуміти й контролювати всесвіт...

// 3734
//“Fool,” said Professor Quirrell, in a voice of quiet, bitter intensity. “You’re
//a fool, Harry Potter.” He passed a hand over his face, and when that hand had
//passed, his face was calmer. “Or more likely you have not yet found your true
//ambition. May I strongly recommend that you try to become a Dark Lord instead?
//I will do anything I can to help as a matter of public service.”
-- Дурень, -- тихо й з гіркотою сказав професор Квірел. -- Ви дурень, Гаррі
Поттер, -- він протер лице долонею й воно стало спокійнішим. -- Чи, можливо, ви
ще просто не знайшли своє справжнє прагнення. Можна наполегливо вам
порекомендувати стати натомість Темним Лордом?.. Я зроблю все що завгодно, щоб
допомогти вам, як послугу людству.

// 3735
//“You don’t like science,” Harry said slowly. “Why not?”
-- Вам не подобається наука, -- повільно сказав Гаррі. -- Чому?

// 3736
//“Those fool Muggles will kill us all someday!” Professor Quirrell’s voice had
//grown louder. “They will end it! End all of it!”
-- Ці дурні маґли колись усіх нас повбивають! -- гучніше сказав професор
Квірел. -- Вони з усім покінчать! Настане кінець усьому!

// 3737
//Harry was feeling a bit lost here. “What are we talking about here, nuclear
//weapons?”
Гаррі трохи розгубився.

-- Ви про що, про ядерну зброю?

// 3738
//“__Yes__, nuclear weapons!” Professor Quirrell was almost shouting now.
//“Even He-Who-Must-Not-Be-Named never used those, perhaps because he didn’t want
//to rule over a heap of ash! They never should have been made! And it will only
//get worse with time!” Professor Quirrell was standing up straight instead of
//leaning on his desk. “There are gates you do not open, there are seals you do
//not breach! The fools who can’t resist meddling are killed by the lesser perils
//early on, and the survivors all know that there are secrets you __do not
//share__ with anyone who lacks the intelligence and the discipline to discover
//them for themselves! Every powerful wizard knows that! Even the most terrible
//Dark Wizards know that! And those idiot Muggles can’t seem to figure it out!
//The eager little fools who discovered the secret of nuclear weapons didn’t keep
//it to themselves, they told their __fool__ politicians and now __we__
//must live under the constant threat of annihilation!”
//hedrok "gates you do not open", "seals you do not breach" - 89:16228
//       і 20:3738
-- __Так__, про ядерну зброю! -- тепер професор Квірел майже кричав. -- Навіть
Той-Кого-Не-Можна-Називати ніколи нею не користувався, мабуть через те, що він
не хотів володарювати над купою попелу! Вона ніколи не мала бути створеною! І
з часом ставатиме лише гірше! -- професор Квірел вже стояв струнко, а не спирався
на стіл. -- Є брами, що їх не відчиняють, є печаті, що їх не зривають! Дурні,
що не можуть встояти перед бажанням пхати носа куди не можна, помирають від
менших загроз значно раніше, а всі вцілілі знають, що є таємниці, які __не
довіряють__ тим, в кого недостатньо розуму чи самоконтролю, щоб відкрити їх
самостійно! Кожен могутній чарівник знає це! Навіть найжахливіші темні
чарівники знають це! А ці ідіоти маґли не можуть цього второпати! Палкі
маленькі дурники, що відкрили секрет ядерної зброї та не змогли його втримати при
собі, вони розпатякали своїм __дурним__ політикам, і тепер __ми__ маємо жити під
постійним страхом знищення!

// 3739
//This was a rather different way of looking at things than Harry had grown up
//with. It had never occurred to him that nuclear physicists should have formed a
//conspiracy of silence to keep the secret of nuclear weapons from anyone not
//smart enough to be a nuclear physicist. The thought was intriguing, if nothing
//else. Would they have had secret passwords? Would they have had masks?
Це доволі відрізнялося від звичної Гаррі з дитинства точки зору. Йому
ніколи не спадало на гадку, що ядерні фізики мали створити змову мовчання й
зберігати таємницю ядерної зброї від усіх, хто не був достатньо розумним, щоб
бути ядерним фізиком. Думка була принаймні захопливою. Чи були б у них таємні
паролі? Чи носили б вони маски?

// 3740
//(Actually, for all Harry knew, there __were__ all sorts of incredibly
//destructive secrets which physicists kept to themselves, and the secret of
//nuclear weapons was the only one that had escaped into the wild. The world
//would look the same to him either way.)
(Насправді, наскільки Гаррі міг припустити, __існують__ різноманітні
неймовірно руйнівні секрети, які фізики тримають при собі, і лише секрет
ядерної зброї було розповсюджено. Світ, який Гаррі міг спостерігати, виглядав би
однаково у будь-якому випадку.)

// 3741
//“I’ll have to think about that,” Harry said to Professor Quirrell. “It’s a new
//idea to me. And one of the __hidden__ secrets of science, passed down from
//a few rare teachers to their grad students, is how to avoid flushing new ideas
//down the toilet the instant you hear one you don’t like.”
-- Мені треба це обміркувати, -- сказав Гаррі професорові Квірелу. -- Це для
мене нова думка. І однією з __прихованих__ таємниць науки, що її передає лише
горстка вчителів своїм випускникам, є те, як не зливати в унітаз нові думки,
щойно ти чуєш такі, що тобі не до вподоби.

// 3742
//Professor Quirrell blinked again.
Професор Квірел моргнув знову.

// 3743
//“Is there any sort of science you __do__ approve of?” said Harry.
//“Medicine, maybe?”
-- А чи є такі науки, що ви їх __схвалюєте__? -- запитав Гаррі. -- Можливо,
медицина?

// 3744
//“Space travel,” said Professor Quirrell. “But the Muggles seem to be dragging
//their feet on the one project which might have let wizardkind escape this
//planet before they blow it up.”
-- Космічні подорожі. Але видається, що маґли повзуть мов черепахи саме в тому
проекті, що може дозволити чаклунам втекти з цієї планети, доки маґли її не
підірвали.

// 3745
//Harry nodded. “I’m a big fan of the space program too. At least we have that
//much in common.”
Гаррі кивнув.

-- Я теж дуже захоплююся космічною програмою. Принаймні це в нас спільне.

// 3746
//Professor Quirrell looked at Harry. Something flickered in the professor’s
//eyes. “I will have your word, your promise and your oath never to speak of what
//follows.”
Професор Квірел поглянув на Гаррі. Щось дивне промайнуло в його очах.

-- Мені потрібне ваше слово, ваша обітниця й ваша клятва ніколи не розповідати
про те, що буде далі.

// 3747
//“You have it,” Harry said immediately.
-- Ви їх отримали, -- миттєво відповів Гаррі.

// 3748
//“See to it that you keep your oath or you will not like the results,” said
//Professor Quirrell. “I will now cast a rare and powerful spell, not on you, but
//on the classroom around us. Stand still, so that you do not touch the
//boundaries of the spell once it has been cast. You must not interact with the
//magic which I am maintaining. Look only. Otherwise I will end the spell.”
//Professor Quirrell paused. “And try not to fall over.”
-- Дотримуйтеся цієї присяги або вам не сподобаються наслідки, -- сказав
професор Квірел. -- Зараз я застосую рідкісне й потужне закляття. Не на вас, а
на кабінеті навколо нас. Не рухайтеся, щоб не торкатися магії, що я її
підтримую. Лише дивіться. Інакше я зупиню закляття, -- професор Квірел зробив
паузу. -- І постарайтеся не впасти.

// 3749
//Harry nodded, puzzled and anticipatory.
Гаррі кивнув зі здивуванням і нетерпінням.

// 3750
//Professor Quirrell raised his wand and said something that Harry’s ears and
//mind couldn’t grasp at all, words that bypassed awareness and vanished into
//oblivion.
Професор Квірел здійняв паличку й сказав щось, що вуха й розум Гаррі взагалі
не змогли сприйняти. Слова пройшли повз свідомість і зникли в забутті.

// 3751
//The marble in a short radius around Harry’s feet stayed constant. All the other
//marble of the floor vanished, the walls and ceilings vanished.
Мармур на короткому радіусі навколо ніг Гаррі залишився незмінним. Решта мармуру
кімнати зникла, зникли стіни й стеля.

// 3752
//Harry stood on a small circle of white marble in the midst of an endless field
//of stars, burning terribly bright and unwavering. There was no Earth, no Moon,
//no Sun that Harry recognized. Professor Quirrell stood in the same place as
//before, floating in the midst of the starfield. The Milky Way was already
//visible as a great wash of light and it grew brighter as Harry’s vision
//adjusted to the darkness.
// hedrok Milky Way... копія у 050:9631
Гаррі стояв на невеличкому диску з білого мармуру посеред безкрайнього поля зірок,
що горіли дивовижно яскраво й не мерехтіли. Не було ані Землі, ані Місяця, ані
Сонця, принаймні Гаррі не міг його розпізнати. Професор Квірел стояв там, де й
раніше, висів посеред океану зірок. Чумацький Шлях вже мав вигляд величезної хвилі
світла, що ставала все яскравішою, що більше зір Гаррі пристосовувався до темряви.

// 3753
//The sight wrenched at Harry’s heart like nothing he had ever seen.
Жодне видовище ніколи не викликало в Гаррі стільки емоцій.

// 3754
//“Are we… in space…?”
-- Ми... у космосі?..

// 3755
//“No,” said Professor Quirrell. His voice was sad, and reverent. “But it is a
//true image.”
-- Ні, -- сумно й благоговійно сказав професор Квірел. -- Проте це справжнє
зображення.

// 3756
//Tears came into Harry’s eyes. He wiped them away frantically, he would not miss
//this for some stupid water blurring his vision.
До очей Гаррі підступили сльози. Він хутко витер їх -- він не пропустить
це через дурну воду, що заважає його зору.

// 3757
//The stars were no longer tiny jewels set in a giant velvet dome, as they were
//in the night sky of Earth. Here there was no sky above, no surrounding sphere.
//Only points of perfect light against perfect blackness, an infinite and empty
//void with countless tiny holes through which shone the brilliance from some
//unimaginable realm beyond.
Зірки більше не скидалися на крихітне коштовне каміння у величезному
оксамитовому куполі, як здавалося з Землі. Тут не було неба над головою, жодної
сфери навколо. Лише точки ідеального світла серед ідеальної чорноти,
нескінченного порожнього ніщо з незліченними крихітними отворами, через які
було видно сяйво з якогось неуявного іншого світу.

// 3758
//In space, the stars __looked__ terribly, terribly, terribly far away.
У космосі зірки __виглядали__ страшенно, страшенно, страшенно далекими.

// 3759
//Harry kept on wiping his eyes, over and over.
Гаррі все витирав і витирав очі від сліз.

// 3760
//“Sometimes,” Professor Quirrell said in a voice so quiet it almost wasn’t
//there, “when this flawed world seems unusually hateful, I wonder whether there
//might be some other place, far away, where I should have been. I cannot seem to
//imagine what that place might be, and if I can’t even imagine it then how can I
//believe it exists? And yet the universe is so very, very wide, and perhaps it
//might exist anyway? But the stars are so very, very far away. It would take a
//long, long time to get there, even if I knew the way. And I wonder what I would
//dream about, if I slept for a long, long time…”
// hedrok: часткова копія у 027:5658
-- Іноді, -- так тихо сказав професор Квірел, що його було ледве чутно, -- коли
цей зіпсований світ здається винятково мерзенним, я починаю гадати, може існує
якесь інше місце, далеко-далеко, де мені слід було б бути. Я не здатен уявити,
яким могло б бути це місце, і якщо я навіть уявити його не можу, то як я можу
вірити, що воно існує? І втім всесвіт дуже, дуже великий, і, можливо, воно
існує все одно? Але зірки дуже, дуже далекі. Щоб дістатися до них, треба
багато, багато часу, навіть якби я знав, як це зробити. І мені цікаво, що б мені
снилося, якби я спав довго-довго...

// 3761
//Though it felt like sacrilege, Harry managed a whisper. “Please let me stay
//here awhile.”
Хоч це й здавалося блюзнірством, Гаррі прошепотів:

-- Будь ласка, дозвольте мені тут затриматися.

// 3762
//Professor Quirrell nodded, where he stood unsupported against the stars.
Професор Квірел кивнув, він стояв без жодної опори посеред зірок.

// 3763
//It was easy to forget the small circle of marble on which you stood, and your
//own body, and become a point of awareness which might have been still, or might
//have been moving. With all distances incalculable there was no way to tell.
Було дуже легко забути про невеличкий диск мармуру під ногами і про власне тіло,
стати точкою свідомості, що чи то зависла на місці, чи то рухалася. Усі
відстані були неосяжними, тому не можна було зрозуміти.

// 3764
//There was a time of no time.
Це був час поза часом.

// 3765
//And then the stars vanished, and the classroom returned.
А потім зірки зникли й повернулася класна кімната.

// 3766
//“I’m sorry,” said Professor Quirrell, “but we’re about to have company.”
-- Мені шкода, -- сказав професор Квірел, -- але невдовзі в нас буде компанія.

// 3767
//“It’s fine,” Harry whispered. “It was enough.” He would never forget this day,
//and not because of the unimportant things that had happened earlier. He would
//learn how to cast that spell if it was the last thing he ever learned.
-- Усе гаразд, -- прошепотів Гаррі. -- Цього було достатньо.

Він ніколи не забуде цього дня, і не через неважливі речі, що трапилися були
раніше. Він навчиться цього закляття, навіть якщо це буде останнім, що він
вивчить.

// 3768
//Then the heavy oaken doors of the classroom blasted off their hinges and
//skittered across the marble floor with a high-pitched shriek.
Враз важкі дубові двері кімнати зірвало із завіс й розкидало по мармуровій
підлозі з пронизливим вереском.

// 3769
//“__QUIRINUS! HOW DARE YOU!__”
-- __КВІРІНЕ! ЯК ТИ ПОСМІВ!__

// 3770
//Like a vast thundercloud, an ancient and powerful wizard blew into the room, a
//look of such incandescent rage upon his face that the stern look he had earlier
//turned upon Harry seemed like nothing.
Древній та могутній чарівник, наче величезна грозова хмара, залетів до кімнати.
На його обличчі палав такий гнів, що суворий вираз, що його отримав був Гаррі
раніше, здавався просто нічим у порівнянні.

// 3771
//There was a wrench of disorientation in Harry’s mind as the part that wanted to
//run away screaming from the scariest thing it had ever seen ran away, rotating
//into place a part of him which could take the shock.
Розум Гаррі дещо дезорієнтувався, коли та його частина, що хотіла з криком
втекти від найстрашнішої з усіх відомих йому речей, втекла, і на її місці
опинилася та його частина, що могла витримати потрясіння.

// 3772
//__None__ of Harry’s facets were happy about having their star-gazing
//interrupted. “Headmaster Albus Percival -” Harry started to say in icy tones.
__Жодна__ з граней Гаррі не була в захваті від того, що їхнє спостереження за
зірками перервали.

-- Директоре Албусе Персів... -- почав Гаррі крижаним тоном.

// 3773
//__WHAM.__ Professor Quirrell’s hand came down hard upon his desk.
//“__Mr. Potter!__” barked Professor Quirrell. “This is the
//__Headmaster of Hogwarts__ and you are a mere student! You will address
//him appropriately!”
__БАБАХ.__ Кулак професора Квірела гучно опустився на стіл.

-- __Містере Поттер!__ -- гаркнув професор Квірел. -- Це -- __директор
Гоґвортсу__, а ви лише учень! Звертайтеся до нього відповідно!

// 3774
//Harry looked at Professor Quirrell.
Гаррі поглянув на професора Квірела.

// 3775
//Professor Quirrell was giving Harry a stern glare.
Той обдарував Гаррі строгим поглядом.

// 3776
//Neither of them smiled.
Жоден з них не всміхався.

// 3777
//Dumbledore’s long strides had come to a halt before where Harry stood in front
//of the dais and Professor Quirrell stood by his desk. The Headmaster stared in
//shock at both of them.
Дамблдор широкими кроками підійшов до місця, де стояв Гаррі біля підвищення, і
де був професор Квірел поряд зі столом. Дамблдор здивовано на них витріщився.

// 3778
//“I’m sorry,” Harry said in meekly polite tones. “Headmaster, thank you for
//wanting to protect me, but Professor Quirrell did the right thing.”
-- Вибачте, -- покірно й ввічливо сказав Гаррі. -- Директоре, дякую за бажання
мене захистити, проте професор Квірел вчинив правильно.

// 3779
//Slowly, Dumbledore’s expression changed from something that would vaporize
//steel into something merely angry. “I heard students saying that this man had
//you abused by older Slytherins! That he forbade you to defend yourself!”
Вираз обличчя Дамблдора повільно змінився з такого, що випаровує сталь, до
чогось просто злого.

-- Я чув, як учні стверджували, що цей чоловік організував, щоб старші
слизеринці знущалися з тебе! Що він заборонив тобі захищатися!

// 3780
//Harry nodded. “He knew exactly what was wrong with me and he showed me how to
//fix it.”
Гаррі кивнув.

-- Він точно знав, що зі мною не так, і показав мені, як це виправити.

// 3781
//“Harry, __what are you talking about?__”
-- Гаррі, __що ти верзеш__?

// 3782
//“I was teaching him how to lose,” Professor Quirrell said dryly. “It’s an
//important life skill.”
-- Я навчав його, як програвати, -- сухо сказав професор Квірел. -- Це важлива
життєва навичка.

// 3783
//It was apparent that Dumbledore still didn’t understand, but his voice had
//lowered in register. “Harry…” he said slowly. “If there’s any threat the
//Defense Professor has offered you to prevent you from complaining -”
Було очевидно, що Дамблдор досі не розумів, проте його голос став дещо тихішим.

-- Гаррі... -- повільно сказав він. -- Якщо професор із захисту тобі чимось
погрожує, щоб ти не скаржився...

// 3784
//__You lunatic, after today of all days do you really think I -__
__Ви безумець, невже навіть сьогодні ви справді гадаєте, що я...__

// 3785
//“Headmaster,” Harry said, trying to look abashed, “what’s wrong with me isn’t
//that I keep quiet about abusive professors.”
-- Директоре, -- сказав Гаррі, намагаючись звучати присоромлено, -- моя
проблема не в тому, що я мовчу про образи з боку професорів.

// 3786
//Professor Quirrell chuckled. “Not perfect, Mr. Potter, but good enough for your
//first day. Headmaster, did you stay long enough to hear about the fifty-one
//points for Ravenclaw, or did you storm out as soon as you heard the first
//part?”
Професор Квірел тихенько засміявся.

-- Не ідеально, містере Поттер, проте непогано для першого дня. Директоре, чи
дослухали ви до частини про пʼятдесят одне очко як винагороду для Рейвенклову,
чи вилетіли з кімнати щойно почули першу частину?

// 3787
//A brief look of disconcertment crossed Dumbledore’s face, followed by surprise.
//“Fifty-one points for Ravenclaw?”
На обличчі Дамблдора промайнуло збентеження, а потім був подив.

-- Пʼятдесят одне очко для Рейвенклову?

// 3788
//Professor Quirrell nodded. “He wasn’t expecting them, but it seemed
//appropriate. Tell Professor McGonagall that I think the story of what Mr.
//Potter went through to earn back the lost points will do just as well to make
//her point. No, Headmaster, Mr. Potter didn’t tell me anything. It’s easy to see
//which part of today’s events are her work, just as I know that the final
//compromise was your own suggestion. Though I wonder how on Earth Mr. Potter was
//able to gain the upper hand over both Snape and you and then Professor
//McGonagall was able to gain the upper hand over him.”
Професор Квірел кивнув.

-- Він їх не очікував, проте це здавалося доречним. Скажіть професорці Макґонеґел,
що, з моєї точки зору, чуток про те, через що довелося пройти містерові
Поттеру для повернення втрачених очок, цілком достатньо, щоб досягти потрібного їй
ефекту. Ні, директоре, містер Поттер нічого мені не розповідав. Легко зрозуміти, яка
частина сьогоднішніх подій є її роботою, так само, як я знаю, що кінцевий компроміс
був вашою пропозицією. Хоча мені цікаво, яким дивовижним чином містер Поттер
зміг взяти гору над вами зі Снейпом, а потім професорка Макґонеґел змогла взяти гору
над ним.

// 3789
//Somehow Harry managed to control his face. Was it __that__ obvious to a
//real Slytherin?
Гаррі якось вдалося не змінитися в лиці. Невже це було __настільки__ очевидним для
справжнього слизеринця?

// 3790
//Dumbledore came closer to Harry, scrutinizing. “Your color looks a little off,
//Harry,” the old wizard said. He peered closely at Harry’s face. “What did you
//have for lunch today?”
Дамблдор підійшов ближче до Гаррі, уважно його оглядаючи.

-- Щось у тебе колір обличчя не дуже, Гаррі, -- сказав старий чарівник. Він
проникливо поглянув на обличчя Гаррі. -- Чим ти сьогодні обідав?

// 3791
//“What?” Harry said, his mind wobbling in sudden confusion. Why would Dumbledore
//be asking about deep-fried lamb and thin-sliced broccoli when that was just
//about the __last__ probable cause of -
-- Що? -- запитав Гаррі. Його розум раптом завагався. Чому це Дамблдор питав
про добре просмажену ягнятину й тонко порізану броколі, якщо це фактично
__остання__ з можливих причин для...

// 3792
//The old wizard straightened up. “Never mind, then. I think you’re fine.”
Старий чарівник випрямився.

-- Не зважай. Гадаю, з тобою все гаразд.

// 3793
//Professor Quirrell coughed, loudly and deliberately. Harry looked at the
//professor, and saw that Professor Quirrell was staring sharply at Dumbledore.
Професор Квірел кахикнув, гучно й нарочито. Гаррі подивився на нього, і побачив,
що професор Квірел витріщався на Дамблдора.

// 3794
//“__Ah-hem!__” Professor Quirrell said again.
-- __Кге-кгем!__ -- знову кашлянув професор Квірел.

// 3795
//Dumbledore and Professor Quirrell locked eyes, and something seemed to pass
//between them.
Дамблдор і професор Квірел схрестили погляди, і між ними ніби щось сталося.

// 3796
//“If you don’t tell him,” Professor Quirrell said then, “I will, even if you
//fire me for it.”
-- Якщо ви не розкажете йому, -- сказав професор Квірел, -- то це зроблю я,
навіть якщо ви мене за це звільните.

// 3797
//Dumbledore sighed and turned back to Harry. “I apologize for invading your
//mental privacy, Mr. Potter,” the Headmaster said formally. “I had no purpose
//except to determine if Professor Quirrell had done the same.”
Дамблдор зітхнув і повернувся до Гаррі.

-- Перепрошую, що порушив ваш ментальний простір, містере Поттер, -- офіційним
тоном сказав директор. -- У мене не було жодних інших намірів, крім як
визначити, чи зробив був професор Квірел те саме.

// 3798
//__What?__
__Що?__

// 3799
//The confusion lasted just exactly as long as it took Harry to understand what
//had just happened.
Сумʼяття тривало саме стільки, скільки Гаррі було потрібно, щоб збагнути, що
щойно сталося.

// 3800
//“__You - !__”
-- __Ви!..__

// 3801
//“Gently, Mr. Potter,” said Professor Quirrell. His face was hard, however, as
//he stared at Dumbledore.
-- Спокійніше, містере Поттер, -- сказав професор Квірел. Втім, його обличчя
було жорстким, коли він подивився на Дамблдора.

// 3802
//“Legilimency is sometimes mistaken for common sense,” said the Headmaster. “But
//it leaves traces which another skillful Legilimens can detect. That was all I
//looked for, Mr. Potter, and I asked you an irrelevant question to ensure you
//wouldn’t think about anything important while I looked.”
// копія 18:3251
-- Виманологію іноді плутають зі здоровим ґлуздом, -- сказав директор. -- Проте
вона залишає сліди, що їх може виявити інший вправний виманолог. Це все, що я
шукав, містере Поттер, і я поставив вам неважливе питання, щоб ви точно не
думали ні про що важливе, доки я шукав.

// 3803
//“__You should have asked first!__”
-- __Треба було спочатку спитати!__

// 3804
//Professor Quirrell shook his head. “No, Mr. Potter, the Headmaster had some
//justification for his concerns, and had he asked for permission you would have
//thought of exactly those things you did not wish him to see.” Professor
//Quirrell’s voice grew sharper. “I am rather more concerned, Headmaster, that
//you saw no need to tell him afterward!”
Професор Квірел похитав головою.

-- Ні, містере Поттер, у директора було достатньо підстав для занепокоєння, і
якби він попросив дозволу, то ви б думали саме про те, чого не хотіли б, щоб
він побачив, -- голос професора Квірела став різкішим. -- Мене більше
бентежить, директоре, що ви не вважали за потрібне сказати йому після того!

// 3805
//“You have now made it more difficult to confirm his mental privacy on future
//occasions,” Dumbledore said. He favored Professor Quirrell with a cold look.
//“Was that your intention, I wonder?”
-- Ви щойно дуже ускладнили майбутні перевірки його ментального стану, --
сказав Дамблдор й обдарував професора Квірела холодним поглядом. -- Цікаво, чи
зробили ви це навмисно?

// 3806
//Professor Quirrell’s expression was implacable. “There are too many Legilimens
//in this school. I insist that Mr. Potter receive instruction in Occlumency.
//Will you permit me to be his tutor?”
Професор Квірел здавався непохитним.

-- У цій школі забагато виманологів. Я наполягаю, щоб містер Поттер отримав
інструктаж з блокології. Чи дозволите ви мені бути його вчителем?

// 3807
//“Absolutely not,” Dumbledore said at once.
-- У жодному разі, -- миттєво відповів Дамблдор.

// 3808
//“I did not think so. Then since __you__ have deprived him of my free
//services, __you__ will pay for Mr. Potter’s tutoring by a licensed
//Occlumency instructor.”
-- Так я й думав. Тоді, оскільки __ви__ позбавили його моїх безкоштовних
послуг, то __ви__ й оплатите містерові Поттеру заняття з акредитованим
інструктором блокології.

// 3809
//“Such services do not come cheaply,” Dumbledore said, looking at Professor
//Quirrell in some surprise. “Although I do have certain connections -”
-- Такі послуги коштують чимало, -- сказав Дамблдор, зі здивуванням розглядаючи
професора Квірела. -- Хоча в мене є певні звʼязки...

// 3810
//Professor Quirrell shook his head firmly. “No. Mr. Potter will ask his account
//manager at Gringotts to recommend a neutral instructor. With respect,
//Headmaster Dumbledore, after the events of this morning I must protest you or
//your friends having access to Mr. Potter’s mind. I must also insist that the
//instructor have taken an Unbreakable Vow to reveal nothing, and that he agree
//to be Obliviated of each session immediately afterward.”
Професор Квірел рішуче похитав головою.

-- Ні. Містер Поттер запитає у свого менеджера в "`Ґрінґотсі`", і той
порекомендує стороннього інструктора. З усією повагою, директоре Дамблдор,
після ранкових подій я змушений виступити проти того, щоб ви чи ваші друзі мали
доступ до розуму містера Поттера. Я також наполягаю, щоб інструктор дав
незламну обітницю нічого не розголошувати, і щоб він погодився на забуття
негайно після кожного заняття.

// 3811
//Dumbledore was frowning. “Such services are __extremely__ expensive, as
//you well know, and I cannot help but wonder why __you__ deem them
//necessary.”
Дамблдор насупився.

-- Такі послуги __надзвичайно__ дорогі, як вам чудово відомо. І я не можу не
поцікавитися, чому __ви__ вважаєте це доцільним.

// 3812
//“If it’s money that’s the problem,” Harry spoke up, “I have some ideas for
//making large amounts of money quickly -”
-- Якщо проблема у фінансах, -- втрутився Гаррі, -- то в мене є деякі думки щодо
швидкого отримання великих сум...

// 3813
//“Thank you Quirinus, your wisdom is now quite evident and I am sorry for
//disputing it. Your concern for Harry Potter does you credit, as well.”
-- Дякую, Квіріне, ваша мудрість тепер очевидна, і перепрошую за те, що
ставив її під сумнів. Ваша турбота про Гаррі Поттера також робить вам честь.

// 3814
//“You’re welcome,” said Professor Quirrell. “I hope you will not object if I go
//on making him a particular focus of my attentions.” Professor Quirrell’s face
//was now very serious, and very still.
-- Будь ласка, -- сказав професор Квірел. -- Сподіваюся, ви також не будете
проти, якщо я особливо зосереджу на ньому свою увагу.

Тепер обличчя професора Квірела стало вкрай серйозним і непорушним.

// 3815
//Dumbledore looked at Harry.
Дамблдор поглянув на Гаррі.

// 3816
//“It is my own wish also,” Harry said.
-- Я теж цього бажаю, -- сказав Гаррі.

// 3817
//“So that’s how it is to be…” the old wizard said slowly. Something strange
//passed across his face. “Harry… you must realize that if you choose this man as
//your teacher and your friend, your first mentor, then one way or another you
//will lose him, and the manner in which you lose him may or may not allow you to
//ever get him back.”
// hedrok: first mentor і далі -- копія у 063:11331
-- То он як воно буде... -- повільно промовив старий чарівник. Щось дивне
промайнуло на його обличчі. -- Гаррі... ти маєш зрозуміти, що якщо ти обереш
цього чоловіка, як твого вчителя й друга, твого першого наставника, то так чи
інакше ти його втратиш. І те, як ти його втратиш, може дозволити, а може й не
дозволити тобі колись його повернути.

// 3818
//That hadn’t occurred to Harry. But there __was__ that jinx on the Defense
//position… one which had apparently worked with perfect regularity for decades…
Це не спадало Гаррі на думку. Але дійсно __існувало__ прокляття на посаді
захисту... і воно, видається, діяло з бездоганною частотою десятиліттями...

// 3819
//“Probably,” said Professor Quirrell quietly, “but he will have the full use of
//me while I last.”
-- Напевно, -- тихо сказав професор Квірел, -- проте я буду до його послуг,
доки витримаю.

// 3820
//Dumbledore sighed. “I suppose it is economical, at least, since as the Defense
//Professor you’re __already__ doomed in some unknown fashion.”
Дамблдор зітхнув.

-- Гадаю, це, принаймні, ощадливо. Бо, як професор із захисту, ви __вже__
приречені якимось невідомим чином.

// 3821
//Harry had to work hard to suppress his expression as he realized what
//Dumbledore had actually been implying.
Гаррі довелося докласти зусиль, щоб не відреагувати, коли усвідомив, що саме
мав на увазі Дамблдор.

// 3822
//“I will inform Madam Pince that Mr. Potter is allowed to obtain books on
//Occlumency,” said Dumbledore.
-- Я проінформую мадам Пінс, що містерові Поттеру дозволено брати книжки з
блокології, -- сказав Дамблдор.

// 3823
//“There is preliminary training which you must do on your own,” said Professor
//Quirrell to Harry. “And I do suggest that you hurry up on it.”
-- Є підготовчі вправи, які ви маєте виконати самостійно, -- сказав професор
Квірел. -- І я пропоную вам поквапитися.

// 3824
//Harry nodded.
Гаррі кивнув.

// 3825
//“I’ll take my leave of you then,” said Dumbledore. He nodded to both Harry and
//Professor Quirrell, and departed, walking a bit slowly.
-- Тоді я залишу вас, -- сказав Дамблдор. Він кивнув і Гаррі, і професорові Квірелу,
та дещо повільно пішов.

// 3826
//“Can you cast the spell again?” Harry said the moment Dumbledore was gone.
-- Ви можете знову виконати це закляття? -- запитав Гаррі, щойно Дамблдор
пішов.

// 3827
//“Not today,” said Professor Quirrell quietly, “and not tomorrow either, I’m
//afraid. It takes a lot out of me to cast, though less to keep going, and so I
//usually prefer to maintain it as long as possible. This time I cast it on
//impulse. Had I thought, and realized we might be interrupted -”
// hedrok: от підступна зміюка!
-- Не сьогодні, -- тихо сказав професор Квірел, -- і, боюся, не завтра. Щоб
його розпочати треба багато сил, хоча на підтримку треба значно менше, тому я
зазвичай не зупиняю його якомога довше. Цього разу це був порив. Якби я подумав
і усвідомив, що нас можуть перервати...

// 3828
//Dumbledore was now Harry’s least favorite person in the entire world.
Зараз для Гаррі Дамблдор був найнеулюбленішою людиною у всесвіті.

// 3829
//They both sighed.
Вони вдвох зітхнули.

// 3830
//“Even if I only ever see it once,” Harry said, “I will never stop being
//grateful to you.”
-- Навіть якщо я побачу це лише ще одного разу, -- сказав Гаррі, -- я завжди
буду вдячний вам.

// 3831
//Professor Quirrell nodded.
Професор Квірел кивнув.

// 3832
//“Have you heard of the Pioneer program?” Harry said. “They were probes that
//would fly by different planets and take pictures. Two of the probes would end
//up on trajectories that took them out of the Solar System and into interstellar
//space. So they put a golden plaque on the probes, with a picture of a man, and
//a woman, and showing where to find our Sun in the galaxy.”
-- Ви чули про програму "`Піонер`"? -- запитав Гаррі. -- Це апарати, що
пролітали повз різні планети й фотографували їх. Два з них перейдуть на
траєкторії, що виведуть їх з сонячної системи до міжзоряного простору. Тому до
них додали золоті пластинки, що зображують чоловіка, жінку, і показують, де
можна знайти Сонце в нашій галактиці.

// 3833
//Professor Quirrell was silent for a moment, then smiled. “Tell me, Mr. Potter,
//can you guess what thought went through my mind when I finished assembling the
//thirty-seven items on the list of things I would never do as a Dark Lord? Put
//yourself in my shoes - imagine yourself in my place - and guess.”
Професор Квірел хвильку помовчав, а потім усміхнувся.

// hedrok: @ put yourself in my shoes
-- Скажіть, містере Поттер, чи можете ви здогадатися, що спало мені на думку,
коли я завершив складати список з тридцяти сімох пунктів того, що я ніколи не
робитиму, коли стану темним лордом? Уявіть себе на моєму місці й спробуйте
здогадатися.

// 3834
//Harry imagined himself looking over a list of thirty-seven things not to do
//once he became a Dark Lord.
Гаррі уявив, як він дивиться на список з тридцяти сімох речей, які не можна
буде робити, коли він стане темним лордом.

// 3835
//“You decided that if you had to follow the __whole__ list __all__ the
//time, there wouldn’t be much point in becoming a Dark Lord in the first place,”
//Harry said.
-- Ви вирішили, що якщо треба дотримуватися __усього__ списку __весь__ час, то
взагалі немає сенсу ставати Темним Лордом.

// 3836
//“__Precisely__,” said Professor Quirrell. He was grinning. “So I am going
//to violate rule two - which was simply ‘don’t brag’ - and tell you about
//something I have done. I don’t see how the knowledge could do any harm. And I
//strongly suspect you would have figured it out anyway, once we knew each other
//well enough. Nonetheless… I shall have your oath never to speak of what I am
//about to tell.”
-- __Саме так__, -- з усмішкою сказав професор Квірел. -- Отже я збираюся
порушити друге правило -- "`не вихваляйся`" -- і розповім вам про дещо, що
я зробив. Не уявляю, як це знання може комусь зашкодити. І я майже впевнений, що
ви б усе одно здогадалися про це, коли ми знатимемо один одного достатньо добре.
І все одно... Присягніться, що ніколи не розповідатимете про те, що я зараз
скажу.

// 3837
//“You have it!” Harry had a feeling this was going to be __really__ good.
-- Присягаюся! -- Гаррі відчував, що буде __справді__ цікаво.

// 3838
//“I subscribe to a Muggle bulletin which keeps me informed of progress on space
//travel. I didn’t hear about Pioneer 10 until they reported its launch. But when
//I discovered that Pioneer 11 would also be leaving the Solar System forever,”
//Professor Quirrell said, his grin the widest that Harry had yet seen from him,
//“I snuck into NASA, I did, and I cast a lovely little spell on that lovely
//golden plaque which will make it last a lot longer than it otherwise would.”
-- У мене є підписка на маґлівське видання, що інформує мене про новини щодо
космічних подорожей. Я не знав про Піонер-10 доки не повідомили про його
запуск. Проте коли я дізнався, що Піонер-11 також покидає сонячну систему
назавжди, -- сказав професор Квірел і вишкірився найширшою усмішкою з усіх, що
бачив у нього Гаррі, -- я прослизнув у НАСА, так-так, і застосував чудове
маленьке закляття на цій чудовій золотій пластині, через яке вона існуватиме
значно довше, ніж змогла б без нього.

// 3839
//…
...

// 3840
//…
...

// 3841
//…
...

// 3842
//“Yes,” Professor Quirrell said, who now seemed to be standing around fifty feet
//taller, “I thought that was how you might react.”
-- Так, -- сказав професор Квірел, що тепер ніби став на пʼятнадцять метрів вищим,
-- я очікував на таку реакцію.

// 3843
//…
...

// 3844
//…
...

// 3845
//…
...

// 3846
//“Mr. Potter?”
-- Містере Поттер?

// 3847
//“…I can’t think of anything to say.”
-- ...у мене немає слів.

// 3848
//“‘You win’ seems appropriate,” said Professor Quirrell.
-- "`Ви перемогли`" здається доречним, -- сказав професор Квірел.

// 3849
//“You win,” Harry said immediately.
-- Ви перемогли, -- негайно сказав Гаррі.

// 3850
//“See?” said Professor Quirrell. “We can only imagine what giant heap of trouble
//you would have gotten into if you had been unable to say that.”
-- Бачите? Можна лише уявити, у яку страшну халепу ви б втрапили, якби не
змогли цього сказати.

// 3851
//They both laughed.
Вони вдвох посміялися.

// 3852
//A further thought occurred to Harry. “You didn’t add any extra information to
//the plaque, did you?”
Гаррі спало на думку ще дещо.

-- А ви раптом не включили до пластини якусь додаткову інформацію?

// 3853
//“Extra information?” said Professor Quirrell, sounding as if the idea had never
//occurred to him before and he was quite intrigued.
-- Додаткову інформацію? -- запитав професор Квірел таким тоном, ніби це була
цілковито нова ідея для нього й він був заінтригований.

// 3854
//Which made Harry rather suspicious, considering that it’d taken less than a
//minute for __Harry __to think of it.
Що було дуже підозрілим для Гаррі, враховуючи, що __йому__ знадобилося менше
хвилини на те, щоб про це подумати.

// 3855
//“Maybe you included a holographic message like in __Star Wars?__” said
//Harry. “Or… hm. A portrait seems to store a whole human brain’s worth of
//information… you couldn’t have added any extra mass to the probe, but maybe you
//could’ve turned an existing part into a portrait of yourself? Or you found a
//volunteer dying of a terminal illness, snuck them into NASA, and cast a spell
//to make sure their __ghost __ended up in the plaque -”
-- Може ви додали голографічне послання, як у "`Зоряних війнах`"? Чи... гм.
Портрети, видається, містять стільки ж інформації, скільки й весь людський мозок... ви не могли
додати маси до апарату, проте, можливо, ви могли перетворити якусь із його частин на
власний портрет? Чи ви знайшли добровольця, що помирав від смертельної хвороби,
протягли його до НАСА й використали таке закляття, щоб його __привид__
опинився на пластині.

// 3856
//“Mr. Potter,” Professor Quirrell said, his voice suddenly sharp, “a spell
//requiring a human death would certainly be classified by the Ministry as Dark
//Arts, regardless of circumstances. Students should not be heard talking about
//such things.”
-- Містере Поттер, -- зненацька різким тоном сказав професор Квірел, --
закляття, що вимагає смерті людини безсумнівно буде віднесено міністерством до
темних мистецтв, незважаючи на жодні обставини. Чути такі речі від учнів
неприйнятно.

// 3857
//And the amazing thing about the way Professor Quirrell said it was how
//perfectly it maintained plausible deniability. It had been said in exactly the
//appropriate tone for someone who wasn’t willing to discuss such things and
//thought students should steer away from them. Harry honestly __didn’t
//know__ whether Professor Quirrell was just waiting to talk about it until after
//Harry had learned to protect his mind.
// hedrok: plausible deniability 072:12488
Просто дивовижно, наскільки бездоганно професор Квірел підібрав слова
відповіді: він залишив собі спроможність на правдоподібне заперечення. Це було сказано саме так,
як сказав би хтось, хто не хоче обговорювати такі речі й гадає, що учням треба
триматися якнайдалі від таких тем. Гаррі чесно __не знав__, чи професор Квірел
просто не хотів з ним про це розмовляти, доки Гаррі не навчиться захищати свій
розум.

// 3858
//“Got it,” Harry said. “I won’t talk with anyone else about that idea.”
-- Ясно, -- сказав Гаррі. -- Я ні з ким більше не говоритиму про цю ідею.

// 3859
//“Please be discreet about the whole matter, Mr. Potter,” Professor Quirrell
//said. “I prefer to go through my life without attracting public notice. You
//will find nothing in the newspapers about Quirinus Quirrell until I decided it
//was time for me to teach Defense at Hogwarts.”
-- Будь ласка, не згадуйте про всю цю справу, містере Поттер. Мені до вподоби
жити без привертання загальної уваги. Ви не знайдете жодних згадок про Квіріна
Квірела в газетах аж доки я не прийняв рішення, що вже час викладати захист у
Гоґвортсі.

// 3860
//That seemed a little sad, but Harry understood. Then Harry realized the
//implications. “So just how much awesome stuff __have__ you done that no
//one else knows about -”
Це здавалося трохи сумним, проте Гаррі міг таке зрозуміти. А потім він
усвідомив, що з цього випливає.

-- __Скільки ж__ усього приголомшливого ви зробили, про що ніхто більше не знає...

// 3861
//“Oh, some,” said Professor Quirrell. “But I think that’s quite enough for
//today, Mr. Potter, I confess I am feeling a bit tired -”
-- О, чимало, -- сказав професор Квірел. -- Але, гадаю, на сьогодні цілком
досить, містере Поттер. Зізнаюся, що я дещо втомився...

// 3862
//“I understand. And __thank you.__ For __everything__.”
-- Я розумію. І __дякую__. За __все__.

// 3863
//Professor Quirrell nodded, but he was leaning harder on his desk.
Професор Квірел кивнув, та він сильніше спирався на стіл.

// 3864
//Harry quickly took his leave.
Гаррі поспіхом вийшов.
