// 7146
//== Status Differentials
== Розділ 36. Різниці статусів

// 7147
//Wrenching disorientation, that was how it felt to walk out of Platform Nine and
//Three-Quarters into the rest of Earth, the world that Harry had once thought
//was the only real world. People dressed in casual shirts and pants, instead of
//the more dignified robes of wizards and witches. Scattered bits of trash here
//and there around the benches. A forgotten smell, the fumes of burned gasoline,
//raw and sharp in the air. The ambiance of the King’s Cross train station, less
//bright and cheerful than Hogwarts or Diagon Alley; the people seemed smaller,
//more afraid, and likely would have eagerly traded their problems for a dark
//wizard to fight. Harry wanted to cast __Scourgify__ for the dirt, and
//__Everto__ for the garbage, and if he’d known the spell, a Bubble-Head
//Charm so he wouldn’t have to breathe the air. But he couldn’t use his wand, in
//this place…
Повна дезорієнтація -- ось що ви{stress}кликав перехід з платформи девʼять і три
чверті до решти Землі, до світу, що його Гаррі колись сприймав як єдиний
справжній світ. Люди носили звичайні футболки й штани замість більш поважних
мантій чарівників і відьом. То тут, то там навколо лавок було насмічено.
Забутий запах: випари спаленого бензину, що різко відчувалися в
повітрі. Настрій вокзалу Кінґс-Крос, менш радісний, ніж Гоґвортсу чи алеї
Діаґон. Люди здавалися меншими, більш наляканими, і, напевне, з радістю обміняли
б свої проблеми на ворожого темного лорда. Гаррі хотілося застосувати
__Брудозникс__ на бруді, __Еверто__ на смітті і, якби він знав закляття, ще
й бульбашкоголові чари, щоб не дихати цим повітрям. Але йому не можна було
використовувати паличку тут...

// 7148
//This, Harry realized, must be what it felt like to go from a First World
//country to a Third World country.
Саме так, вирішив Гаррі, мають почуватися люди, що потрапили до країни третього
світу з країни першого світу.

// 7149
//Only it was the Zeroth World which Harry had left, the wizarding world, of
//Cleansing Charms and house elves; where, between the healer’s arts and your own
//magic, you could hit one hundred and seventy before old age really started
//catching up with you.
Тільки Гаррі щойно покинув нульовий світ -- чаклунський світ, світ очисних
чарів та ельфів-домовиків; світ, де мистецтво цілителів та власна магія
дозволяли дожити до ста сімдесяти років, перш ніж старість почне відчуватися.

// 7150
//And nonmagical London, Muggle Earth, to which Harry had temporarily returned.
//This was where Mum and Dad would live out the rest of their lives, unless
//technology leapfrogged over wizardry’s quality of life, or something deeper in
//the world changed.
А тут нечаклунський Лондон, маґлівська Земля, до якої Гаррі тимчасово
повернувся. Саме тут мама й тато проживуть до кінця свого життя, хіба що
технології перевершать рівень життя чаклунів, або у світі відбудуться навіть
глибші зміни.

// 7151
//Without even thinking about it, Harry’s head turned and his eyes darted behind
//him to see the wooden trunk that was scurrying after him, unnoticed by any
//Muggles, the clawed tentacles offering quick confirmation that, yes, he hadn’t
//just imagined it all…
Гаррі бездумно повернув голову й поглянув на деревʼяну валізу, що слідувала за
ним, невидима для маґлів. Її щупальця з кігтями швидко підтвердили, що так, він
це все не просто вигадав.

// 7152
//And then there was the other reason for the tight feeling in his chest.
Крім того була ще одна причина, чому йому сперло в грудях.

// 7153
//His parents didn’t know.
Його батьки не знали.

// 7154
//They didn’t know __anything__.
Вони не знали __нічого__.

// 7155
//They didn’t know…
Вони не знали...

// 7156
//“Harry?” called a thin, blonde woman whose perfectly smooth and unblemished
//skin made her look a good deal younger than thirty-three; and Harry realized
//with a start that it __was__ magic, he hadn’t known the signs before but
//he could see them now. And whatever sort of potion lasted that long, it must
//have been terribly dangerous, because most witches didn’t do that to
//themselves, they weren’t that desperate…
-- Гаррі? -- гукнула струнка білява жінка з бездоганно рівною та однотонною
шкірою, через яку вона здавалася значно молодшою за тридцять три. І Гаррі з
подивом зрозумів, що це __справді__ була магія, він не знав був ознак раніше,
але тепер чітко бачив їх. І хай яке зілля тривало так довго, воно мало бути
неймовірно небезпечним, адже більшість відьом не робили цього з собою, вони не
були в такому розпачі... 

// 7157
//There was water gathering in Harry’s eyes.
До очей Гаррі підступили сльози.

// 7158
//“__Harry?__” yelled an older-looking man with a paunch gathering about his
//stomach, dressed with ostentatious academic carelessness in a black vest thrown
//over a dark grey-green shirt, someone who would always be a professor anywhere
//he went, who would certainly have been one of the most brilliant wizards of his
//generation, if he’d been born with two copies of that gene, instead of zero…
-- __Гаррі?__ -- крикнув старший на вигляд чоловік, в якого почало зʼявлятися
пузо, одягнутий з показною академічною недбалістю в чорний жилет наповерх
темної зелено-сірої футболки. Він завжди буде професором, хай куди він піде, і
безперечно став би одним з найгеніальніших чарівників свого покоління, якби
народився з двома копіями цього гена замість нуля...

// 7159
//Harry raised his hand and waved to them. He couldn’t speak. He couldn’t speak
//at all.
Гаррі підняв руку й помахав їм. Він не здатен був розмовляти. Геть не здатен.

// 7160
//They came over to him, not running, but at a steady, dignified walk; that was
//how fast Professor Michael Verres-Evans walked, and Mrs. Petunia Evans-Verres
//wasn’t about to walk any faster.
Вони підійшли до нього без поквапу: рівною, гідною ходою. Саме з такою
швидкістю йшов професор Майкл Веррес-Еванс, і місіс Петунія Еванс-Веррес не
збиралася йти швидше.

// 7161
//The smile on his father’s face wasn’t very wide, but then his father never was
//given to huge smiles; it was, at least, as wide as Harry had ever seen it,
//wider than when a new grant came in, or when one of his students got a
//position, and you couldn’t ask for a wider smile than that.
Усмішка на обличчі тата була не дуже широкою, але тато ніколи не був
прибічником величезних усмішок. Принаймні, Гаррі ніколи не бачив ширшої
усмішки, навіть коли приходив новий грант, чи коли його студенти отримували
посаду, а більшого годі й просити.

// 7162
//Mum was blinking hard, and she was trying to smile but not doing a very good
//job.
Мама часто кліпала, і теж намагалася всміхнутися, але в неї виходило не надто
добре.

// 7163
//“So!” said his father as he came striding up. “Made any revolutionary
//discoveries yet?”
-- Отже! -- сказав його батько, доки підходив. -- Вже зробив якісь революційні
відкриття?

// 7164
//Of course Dad thought he was joking.
Звісно тато гадав, що жартує.

// 7165
//It hadn’t hurt quite so much when his parents didn’t believe in him, back when
//no one __else__ had believed in him either, back when Harry hadn’t
//__known__ how it felt to be taken seriously by people like Headmaster
//Dumbledore and Professor Quirrell.
Було не так боляче, коли батьки не вірили в нього, ще доки __ніхто інший__ теж не вірив
у нього: доки Гаррі __не знав__, як воно, коли тебе сприймають серйозно такі люди,
як директор Дамблдор та професор Квірел.

// 7166
//And that was when Harry realized that the Boy-Who-Lived only existed in magical
//Britain, that there wasn’t any such person in Muggle London, just a cute little
//eleven-year-old boy going home for Christmas.
І саме тоді Гаррі усвідомив, що Хлопчик-Що-Вижив існує лише в чаклунській Британії,
що такої людини просто не було в маґлівському Лондоні -- лише маленький милий
одинадцятирічний хлопчик, що повернувся додому на Різдво.

// 7167
//“Excuse me,” Harry said, his voice trembling, “I’m going to break down and cry
//now, it doesn’t mean there was anything wrong at school.”
-- Перепрошую, -- сказав Гаррі, його голос тремтів, -- я зараз розклеюся й
плакатиму, але це не означає, що зі школою щось не так.

// 7168
//Harry started to move forward, and then stopped, torn between hugging his
//father and hugging his mother, he didn’t want either one to feel slighted or
//that Harry loved them more than the other -
Гаррі почав рухатися вперед, а потім зупинився: він ніяк не міг вирішити,
обійняти тата чи маму, він не хотів, щоб хтось з батьків відчував образу через
те, що Гаррі любить його більше, ніж іншого...

// 7169
//“You,” said his father, “are a very silly boy, Mr. Verres,” and he gently took
//Harry by the shoulders and pushed him into the arms of his mother, who was
//kneeling down, tears already streaking her cheek.
-- Ти, -- сказав його тато, -- дуже дурний хлопчик, містере Веррес.

І обережно взяв Гаррі за плечі й підштовхнув його до рук матері, що присіла,
сльози вже лилися її щоками.

// 7170
//“Hello, Mum,” Harry said with his voice wavering, “I’m back.” And he hugged
//her, amid the noisy mechanical sounds and the smell of burned gasoline; and
//Harry started crying, because he knew that nothing __could__ go back,
//least of all him.
-- Привіт, мамо, -- сказав Гаррі нерівним голосом. -- Я повернувся.

І він обійняв її, посеред гулу механічних звуків та запаху спаленого бензину.
Гаррі почав плакати, бо знав, що нічого __не могло__ стати як було,
принаймні не для нього.

***

// 7171
//The sky was completely dark, and stars were coming out, by the time they
//negotiated the Christmas traffic to the university town that was Oxford, and
//parked in the driveway of the small, dingy-looking old house that their family
//used to keep the rain off their books.
Небо потемнішало, і на ньому почали зʼявлятися зірки, коли вони прорвалися
через різдвяний дорожній рух до міста-університету, що звалося Оксфордом, і
припаркувалися біля невеличкого, неяскравого, старого будинку, який їхня родина
використовувала для захисту книжок від дощу.

// 7172
//As they walked up the brief stretch of pavement leading to the front door, they
//passed a series of flower-pots holding small, dim electric lights (dim since
//they had to recharge themselves off solar power during the day), and the lights
//lit up just as they passed. The hard part had been finding motion sensors that
//were waterproof and triggered at just the right distance…
Вздовж короткої мощеної доріжки до вхідних дверей були розташовані горщики з
квітами, в яких спалахували тьмяні лампочки (тьмяні, адже вони заряджалися від
сонячних панелей впродовж дня) саме коли вони проходили повз них. Найскладнішим
було знайти датчики руху, що були водонепроникними й реагували саме на
правильній відстані...

// 7173
//In Hogwarts there were real torches like that.
У Гоґвортсі таке робили справжні смолоскипи.

// 7174
//And then the front door opened and Harry stepped into their living-room,
//blinking hard.
А потім вхідні двері розчинилися, і Гаррі зайшов до їхньої вітальні, часто
кліпаючи.

// 7175
//__Every inch of wall space is covered by a bookcase. Each bookcase has
//six shelves, going almost to the ceiling. Some bookshelves are stacked to the
//brim with hardcover books: science, math, history, and everything else. Other
//shelves have two layers of paperback science fiction, with the back layer of
//books propped up on old tissue boxes or two-by-fours, so that you can see the
//back layer of books above the books in front. And it still isn’t enough. Books
//are overflowing onto the tables and the sofas and making little heaps under the
//windows…__
// hedrok: копія 001:33, крім: hardback -> hardcover; maths -> math; lengths of
// wood -> two-by-fours
Кожен сантиметр простору вздовж стін займають книжкові шафи. Кожна
шафа має по шість полиць і сягає майже стелі. Деякі полиці до краю заставлені
книжками у твердій обкладинці: фундаментальні науки, математика, історія тощо.
На інших -- наукова фантастика в мʼякій обкладинці у два ряди.
Під задні підкладено старі коробки з-під серветок або бруски, щоб їх можна було
бачити над передніми. Але й цього було замало. Книжки заполонили
столи й дивани, книжки лежать невеликими купами попід вікнами.

// 7176
//The Verres household was just as he’d left it, only with more books, which was
//also just how he’d left it.
Дім Верресів був саме таким, як він і памʼятав, тільки книжок побільшало, що
теж не відрізнялося від того, що він памʼятав.

// 7177
//And a Christmas tree, naked and undecorated just two days before Christmas Eve,
//which threw Harry briefly before he realized, with a warm feeling blossoming in
//his chest, that of course his parents had __waited__.
А також додалася різдвяна ялинка без жодних прикрас -- і це за два дні до
Різдва, що на мить здивувало Гаррі, доки він з радістю не зрозумів, що, звісно,
його батьки __чекали__ були.

// 7178
//“We took the bed out of your room to make room for more bookcases,” said his
//father. “You can sleep in your trunk, right?”
-- Ми прибрали ліжко з твоєї кімнати, щоб поставити більше шаф, -- сказав його
тато. -- Ти ж можеш спати у валізі, так?

// 7179
//“__You__ can sleep in my trunk,” said Harry.
-- __Сам__ можеш спати в моїй валізі, -- сказав Гаррі.

// 7180
//“That reminds me,” said his father. “What __did__ they end up doing about
//your sleep cycle?”
-- Це нагадало мені, -- сказав тато. -- То __що__ вони зробили з твоїм циклом
сну?

// 7181
//“Magic,” Harry said, making a beeline for the door that opened upon his
//bedroom, just in case Dad __wasn’t__ joking…
-- Магія, -- відповів Гаррі й прожогом кинувся до дверей своєї кімнати на
випадок, якщо тато __не жартував__...

// 7182
//“That’s not an explanation!” said Professor Verres-Evans, just as Harry
//shouted, “__You used up all the open space on my bookcases?__”
-- Це не пояснення! -- вигукнув професор Веррес-Еванс, а Гаррі одночасно
крикнув:

-- __Ви використали все вільне місце на моїх книжкових полицях?__

***

// 7183
//Harry had spent the 23rd of December shopping for Muggle things that he
//couldn’t just Transfigure; his father had been busy and had said that Harry
//would need to walk or take the bus, which had suited Harry just fine. Some of
//the people at the hardware store had given Harry questioning looks, but he’d
//said with an innocent voice that his father was shopping nearby and was very
//busy and had sent him to get some things (holding up a list in carefully
//adult-looking half-illegible handwriting); and in the end, money was money.
Двадцять третього грудня Гаррі скуповував маґлівські речі, що їх він не міг
просто трансфігурувати. Його батько мав справи й сказав, що Гаррі доведеться
йти пішки чи їхати автобусом, що цілком влаштовувало Гаррі. Деякі продавці
техніки питально дивилися на Гаррі, проте він невинно стверджував, що його
батько купує щось інше поряд, і він дуже зайнятий, тому відправив його щось
придбати (і давав список, що був написаний дорослим на вигляд почерком, що ледь
можна було розібрати). Зрештою, гроші -- це гроші.

// 7184
//They had all decorated the Christmas tree together, and Harry had put a tiny
//dancing fairy on top (two Sickles, five Knuts at Gambol &amp; Japes).
Потім вони разом нарядили різдвяну ялинку, і Гаррі поставив на вершечку
крихітну фею, що танцювала (два серпики, пʼять кнатів у "`Витівках і
пустощах`").

// 7185
//Gringotts had readily exchanged Galleons for paper money, but they didn’t seem
//to have any simple way to turn larger quantities of gold into tax-free,
//unsuspicious Muggle money in a numbered Swiss bank account. This had rather
//spiked Harry’s plan to turn most of the money he’d self-stolen into a sensible
//mix of 60// international index funds and 40// Berkshire Hathaway. For the
//moment, Harry had diversified his assets a little further by sneaking out late
//at night, invisible and Time-Turned, and burying one hundred golden Galleons in
//the backyard. He’d always always __always__ wanted to do that anyway.
// hedrok: @ index funds
"`Ґрінґотс`" без проблем обміняв був ґалеони на паперові гроші, але, видається,
не існувало простого способу обміняти велику кількість золота на
неоподатковані, непримітні маґлівські гроші на швейцарському рахунку. Це
завдало серйозного удару по плану Гаррі вкласти більшість самовкрадених грошей
у розумну суміш з 60% міжнародних індексових фондів та 40% "`Berkshire
Hathaway`". Наразі Гаррі лише трохи диверсифікував свої активи: він нишком
вийшов уночі під Плащем невидимості та під дією часовороту закопав сто
золотих ґалеонів на подвірʼї. Усе одно він завжди-завжди-__завжди__ хотів це
зробити.

// 7186
//Some of December 24th had been spent with the Professor reading Harry’s books
//and asking questions. Most of the experiments his father had suggested were
//impractical, at least for the moment; of those remaining, Harry had done many
//of them already. (“Yes, Dad, I checked what happened if Hermione was given a
//changed pronunciation and she didn’t know whether it was changed, that was the
//very first experiment I did, Dad!”)
Частину двадцять четвертого грудня професор Веррес-Еванс читав книжки Гаррі й
ставив питання. Більшість з пропонованих батьком дослідів були непрактичними,
принаймні наразі; більшість з решти Гаррі вже провів. ("`Так, тату, я
перевірив, що станеться, якщо дати Герміоні змінену вимову закляття, і вона не
знатиме, змінили її чи ні, -- це був мій найперший дослід, тату!`").

// 7187
//The last question Harry’s father had asked, looking up from __Magical
//Draughts and Potions__ with an expression of bewildered disgust, was whether it
//all made sense if you were a wizard; and Harry had answered no.
Наостанок батько спантеличено запитав, підвівши переповнений огидою погляд від
"`Магічні настоянки та зілля`", чи все це було зрозумілим, якщо ти чаклун; і
Гаррі відповів, що ні.

// 7188
//Whereupon his father had declared that magic was unscientific.
Після чого тато проголосив, що магія -- ненаукова.

// 7189
//Harry was still a little shocked at the idea of pointing to a section of
//__reality__ and calling it unscientific. Dad seemed to think that the
//conflict between his intuitions and the universe meant that the universe had a
//problem.
Гаррі досі не оговтався від ідеї вказати на частину __дійсності__ й назвати її
ненауковою. Видається, тато вважав, що якщо є конфлікт між його припущеннями й
всесвітом, то зі всесвітом щось не так.

// 7190
//(Then again, there were lots of physicists who thought that quantum mechanics
//was weird, instead of quantum mechanics being normal and them being weird.)
(Але з іншого боку, чимало фізиків вважало квантову механіку дивною замість
того, щоб вважати квантову механіку нормальною, а себе дивними.)

// 7191
//Harry had shown his mother the healer’s kit he’d bought to keep in their house,
//though most of the potions wouldn’t work on Dad. Mum had stared at the kit in a
//way that made Harry ask whether Mum’s sister had ever bought anything like that
//for Grandpa Edwin and Grandma Elaine. And when Mum still hadn’t answered, Harry
//had said hastily that she must have just never thought of it. And then,
//finally, he’d fled the room.
Гаррі також показав мамі аптечку цілителя, що він купив був для збереження в
їхньому домі, хоча більшість зіллів не спрацюють на татові. Мама втупилася в
аптечку, через що Гаррі запитав, чи купувала була колись сестра мами щось таке
для дідуся Едвіна та бабусі Елейн. Мати продовжила мовчати, а він квапливо
сказав, що їй просто певно ніколи не спадало таке на думку. І, нарешті, втік з
кімнати.

// 7192
//Lily Evans probably __hadn’t__ thought of it, that was the sad thing.
//Harry knew that other people had a tendency to not-think about painful
//subjects, in the same way they had a tendency not to deliberately rest their
//hands on red-hot stove burners; and Harry was starting to suspect that most
//Muggleborns rapidly acquired a tendency to not-think about their family, who
//were all going to die before they reached their first century anyway.
Лілі Еванс напевно справді просто __не спало це на думку__, і це було сумно.
Гаррі знав, що в решти людей була схильність не-думати про болючі теми, так
само, як у них була схильність не класти з власної волі руки на розжарену
плиту. І Гаррі почав підозрювати, що більшість чаклунів маґлівського роду дуже
швидко починали не-думати про свою родину, що все одно помре, коли їм ще й
сотні років не буде.

// 7193
//Not that Harry had any intention of letting __that__ happen, of course.
Гаррі, звісно, не збирався __такого__ допустити.

// 7194
//And then it was late in the day on December 24th and they were driving off for
//their Christmas Eve dinner.
А тоді прийшов пізній вечір двадцять четвертого грудня, і вони поїхали на святковий
обід.

***

// 7195
//The house was huge, not by Hogwarts standards, but certainly by the standards
//of what you could get if your father was a distinguished professor trying to
//live in Oxford. Two stories of brick gleaming in the setting sun, with windows
//on top of windows and one tall window that went up much further than glass
//should go, that was going to be one huge living room…
Будинок був величезним. Не за мірками Гоґвортсу, але за мірками того, що можна
отримати, якщо твій батько -- визнаний професор, що хоче жити в Оксфорді, без
сумніву. Два поверхи цегли відбивали світло сонця, що вже заходило, вікна над
вікнами, і одне височенне вікно здіймалося значно вище, ніж мало б здійматися скло -- це,
певно, величезна вітальня.

// 7196
//Harry took a deep breath, and rang the doorbell.
Гаррі глибоко вдихнув та натиснув на дзвоник.

// 7197
//There was a distant call of “Honey, can you get it?”
Почувся далекий вигук "`Любий, можеш відкрити?`"

// 7198
//This was followed by a slow patter of approaching steps.
Після чого почулися повільні кроки.

// 7199
//And then the door opened to reveal a genial man, of fat and rosy cheeks and
//thinning hair, in a blue button-down shirt straining slightly at the seams.
Тоді двері відчинилися, і за ними був привітний чоловік з товстими рожевими
щоками та рідким волоссям. На ньому була синя сорочка, що явно була трохи
замалою.

// 7200
//“Dr. Granger?” Harry’s father said briskly, before Harry could even speak. “I’m
//Michael, and this is Petunia and our son Harry. The food’s in the magical
//trunk,” and Dad made a vague gesture behind him - not quite in the direction of
//the trunk, as it happened.
-- Докторе Ґрейнджер? -- швидко запитав батько Гаррі перед тим, як він встиг
щось казати. -- Мене звати Майкл, це -- Петунія і наш син Гаррі. Їжа в магічній
валізі, -- і тато невпевнено вказав кудись за собою -- насправді не зовсім у
напрямку валізи.

// 7201
//“Yes, please, come in,” said Leo Granger. He stepped forward and took the wine
//bottle from the Professor’s outstretched hands, with a muttered “Thank you,”
//and then stepped back and waved at the living room. “Have a seat. And,” his
//head turning down to address Harry, “all the toys are downstairs in the
//basement, I’m sure Herm will be down shortly, it’s the first door on your
//right,” and pointed toward a hallway.
-- Так, заходьте, будь ласка, -- сказав Лео Ґрейнджер. Він підійшов на крок і
забрав пляшку вина з простягнутих рук професора Веррес-Еванса, пробурмотівши
"`дякую`", а потім відійшов та запросив їх до вітальні. -- Сідайте. І, -- він
поглянув вниз на Гаррі, -- всі іграшки внизу в підвалі, Гермі точно зараз туди
спуститься -- перші двері праворуч, -- і він вказав на коридор.

// 7202
//Harry just looked at him for a moment, conscious that he was blocking his
//parents from coming in.
Гаррі ненадовго втупився в нього, хоча розумів, що заблокував батькам вхід.

// 7203
//“Toys?” said Harry in a bright, high-pitched voice, with his eyes wide. “I love
//toys!”
-- Іграшки? -- вимовив Гаррі радісним, високим голосом з широко розплющеними
очима. -- Обожнюю іграшки!

// 7204
//There was an intake of breath from his mother behind him, and Harry strode into
//the house, managing not to stomp too hard as he walked.
// hedrok: @ managing not to stomp too hard as he walked
Позаду нього мама набрала повітря в груди, та Гаррі хутко зайшов у будинок,
йому довелося докласти зусиль, щоб не надто сильно гупати.

// 7205
//The living room was every bit as large as it had looked from outside, with a
//huge vaulted ceiling dangling a gigantic chandelier, and a Christmas tree that
//must have been murder to maneuver through the door. The lower levels of the
//tree were thoroughly and carefully decorated in neat patterns of red and green
//and gold, with a newfound sprinkling of blue and bronze; the heights that only
//a grownup could reach were carelessly, randomly draped with strings of lights
//and wreaths of tinsel. A hallway extended until it terminated in the cabinetry
//of a kitchen, and wooden stairs with polished metal railings stretched up
//toward a second floor.
Вітальня анітрохи не поступалася його уяві: з величезної склепінчастої стелі
звисав гігантський канделябр, у кімнаті була різдвяна ялинка, що її можна було
пронести крізь двері лише за допомогою неймовірної винахідливості. Нижні яруси
дерева були охайно прикрашені візерунками червоного, зеленого й золотого,
подекуди під блакитним чи бронзовим дощиком. Яруси, що до них могли дотягнутися
лише дорослі, були неохайно, випадково закидані електричними гірляндами та
зливою блискіток. Коридор ішов далі, доки не впирався в кухонні шафки та
деревʼяні сходи з блискучими металевими поручнями, що вели на другий поверх.

// 7206
//“Gosh!” Harry said. “This is a big house! I hope I don’t get lost in here!”
-- Господи! -- вигукнув Гаррі. -- Оце так великий будинок! Сподіваюся, я тут не
заблукаю!

***

// 7207
//Dr. Roberta Granger was feeling rather nervous as dinner approached. The turkey
//and the roast, their own contributions to the common project, were steadily
//cooking away in the oven; the other dishes were to be brought by their guests,
//the Verres family, who had adopted a boy named Harry. Who was known to the
//wizarding world as the Boy-Who-Lived. And who was also the only boy that
//Hermione had ever called “cute”, or noticed at all, really.
Доктор Роберта Ґрейнджер нервувалася дедалі більше з наближенням вечері.
Індичка й печеня -- їхній власний внесок у спільну зустріч -- уже готувалися в
духовці. Решту страв мали принести їхні гості -- родина Верресів, що всиновила
хлопчика на імʼя Гаррі. Також відомого в чаклунському світі як
Хлопчик-Що-Вижив. І також першого хлопця, якого Герміона назвала "`милим`" чи
насправді бодай помітила.

// 7208
//The Verreses had said that Hermione was the only child in Harry’s age group
//whose existence their son had ever acknowledged in any way whatsoever.
Верреси казали були, що Герміона -- єдина дитина вікової групи Гаррі, на чиє
існування їхній син хоч якось реагував.

// 7209
//And it might’ve been jumping the gun just a little; but both couples had a
//sneaking suspicion that wedding bells might be in the offing a few years down
//the road.
І, можливо, ще трохи зарано про таке думати, проте обидві пари не могли
позбутися передчуття, що в недалекому майбутньому задзвенять весільні дзвоники.

// 7210
//So while Christmas Day would be spent, as always, with her husband’s family,
//they’d decided to spend Christmas Eve meeting their daughter’s possible future
//in-laws.
Тому хоч вони й проведуть Різдво, як і завжди, з родиною її чоловіка, вони
вирішили провести Святвечір з можливими майбутніми родичами їхньої доньки.

// 7211
//The doorbell rang while she was right in the middle of basting the turkey, and
//she raised her voice and shouted, “__Honey, can you get it?__”
Залунав дверний дзвоник, але вона саме поливала індичку, тому вона підвищила
голос і прокричала: "`Любий, можеш відкрити?`"

// 7212
//There was a brief groan of a chair and its occupant, and then there was the
//sound of her husband’s heavy footsteps and the door swinging open.
Почувся стогін крісла та того, хто в ньому сидів, а потім її чоловік
важкими кроками підійшов до дверей та розчахнув їх.

// 7213
//“Dr. Granger?” said an older man’s brisk voice. “I’m Michael, and this is
//Petunia and our son Harry. The food’s in the magical trunk.”
-- Докторе Ґрейнджер? -- почула вона швидкий голос старшого чоловіка. -- Мене
звати Майкл, це -- Петунія і наш син Гаррі. Їжа в магічній валізі.

// 7214
//“Yes, please, come in,” said her husband, followed by a muttered “Thank you”
//that indicated some sort of present had been accepted, and “Have a seat.” Then
//Leo’s voice altered to a tone of artificial enthusiasm, and said, “And all the
//toys are downstairs in the basement, I’m sure Herm will be down shortly, it’s
//the first door on your right.”
-- Так, заходьте, будь ласка, -- сказав її чоловік, після чого почулося
приглушене "`дякую`" -- напевно він прийняв якийсь подарунок. -- Сідайте, --
тоді Лео перейшов на тон штучного захоплення. -- І всі іграшки внизу в підвалі,
Гермі точно зараз туди спуститься -- перші двері праворуч.

// 7216
//Then a young boy’s bright voice said, “Toys? I love toys!”
Потім почувся радісний дитячий голос: "`Іграшки? Обожнюю іграшки!`"

// 7217
//There was the sound of footsteps entering the house, and then the same bright
//voice said, “Gosh! This is a big house! I hope I don’t get lost in here!”
Вона почула, як хтось зайшов у дім, а потім тим самим радісним голосом:

-- Господи! Оце так великий будинок! Сподіваюся, я тут не заблукаю!

// 7218
//Roberta closed up the oven, smiling. She’d been a bit worried about the way
//Hermione’s letters had described the Boy-Who-Lived - though certainly her
//daughter hadn’t said anything indicating that Harry Potter was
//__dangerous;__ nothing like the dark hints written in the books Roberta
//had bought, supposedly for Hermione, during their trip to Diagon Alley. Her
//daughter hadn’t said much at all, only that Harry talked like he came out of a
//book, and Hermione was studying harder than she ever had in her life just to
//stay ahead of him in class. But from the sound of it, Harry Potter was an
//ordinary eleven-year-old boy.
Роберта закрила духовку, всміхаючись. Вона трохи непокоїлася була щодо того, як
Герміона описала в листах Хлопчика-Що-Вижив. Звісно, її дочка не казала нічого,
що свідчило б про те, що Гаррі Поттер був __небезпечним__. Жодних темних
натяків, як у книжках, що вона купила була нібито для Герміони впродовж їхньої
поїздки до алеї Діаґон. Її дочка взагалі мало чого розповіла: лише що Гаррі
розмовляв, ніби він вийшов з книжки, і що Герміоні доводилося навчатися
старанніше, ніж будь-коли, аби випереджати його. Але, видавалося, Гаррі
Поттер був звичайнісіньким одинадцятирічним хлопцем.

// 7219
//She got to the front door just as her daughter came clattering frantically down
//the stairs at a speed that didn’t look safe at all, Hermione had claimed that
//witches were more resistant to falls but Roberta wasn’t quite sure she believed
//that -
Вона дісталася вхідних дверей, коли її дочка несамовито злетіла зі сходів з
такою швидкістю й тупотінням, що це явно було небезпечно. Герміона стверджувала
була, що відьми більш стійкі до падінь, але Роберта не була впевнена, що вона в
це вірить...

// 7220
//Roberta took in her first sight of Professor and Mrs. Verres, who were both
//looking rather nervous, just as the boy with the legendary scar on his forehead
//turned to her daughter and said, now in a lower voice, “Well met on this
//fairest of evenings, Miss Granger.” His hand stretched back, as though offering
//his parents on a silver platter. “I present to you my father, Professor Michael
//Verres-Evans, and my mother, Mrs. Petunia Evans-Verres.”
Роберта вперше оглянула професора та місіс Веррес. Вони здавалися доволі
знервованими, як і хлопець із легендарним шрамом на чолі. Він повернувся до її
доньки та сказав значно нижчим голосом:

-- Радий зустрічі в цей чудовий вечір, міс Ґрейнджер, -- він випростав руку за
спину, ніби пропонував своїх батьків на срібному тарелі. -- Дозвольте
представити, мій батько -- професор Веррес-Еванс, моя матір -- місіс
Петунія Еванс-Веррес.

// 7221
//And as Roberta’s mouth was gaping open, the boy turned back to his parents and
//said, now in that bright voice again, “Mum, Dad, this is Hermione! She’s really
//smart!”
Доки Роберта стояла з відвислою щелепою, хлопець обернувся до своїх батьків та
сказав, знову веселим дитячим голосом:

-- Мамо, тату, це Герміона! Вона дуже розумна!

// 7222
//“__Harry!__” hissed her daughter. “Stop that!”
-- __Гаррі!__ -- прошипіла її дочка. -- Припини!

// 7223
//The boy swiveled again to regard Hermione. “I’m afraid, Miss Granger,” the boy
//said gravely, “that you and I have been exiled to the labyrinthine recesses of
//the basement. Let us leave them to their adult conversations, which would no
//doubt soar far above our own childish intellects, and resume our ongoing
//discussion of the implications of Humean projectivism for Transfiguration.”
Хлопець крутнувся до Герміони.

// hedrok: @ Humean projectivism
-- На жаль, міс Ґрейнджер, -- серйозно сказав хлопець, -- нам доведеться піти у
вигнання в лабіринти підвалу. Покиньмо їх та їхні дорослі розмови, що без
сумніву ширятимуть у далекій височині над нашими дитячими інтелектами, та
продовжимо нашу дискусію щодо наслідків проективізму Гʼюма для трансфігурації.

// 7224
//“Excuse us, please,” said her daughter in a very firm tone, and grabbed the boy
//by his left sleeve, and dragged him into the hallway - Roberta swiveled
//helplessly to track them as they went past her, the boy gave her a cheery wave
//- and then Hermione pulled the boy into the basement access and slammed the
//door behind her.
-- Вибачте, будь ласка, -- сказала її дочка дуже впевненим тоном, схопила хлопця
за лівий рукав та потягла його коридором -- Роберта безпорадно спостерігала,
як вони пройшли повз неї, хлопець весело помахав їй рукою... а потім Герміона
затягнула хлопця в підвал та грюкнула за собою дверима.

// 7225
//“I, ah, I apologize for…” said Mrs. Verres in a faltering voice.
-- Я, ем, прошу вибачення за... -- невпевнено сказала місіс Веррес.

// 7226
//“I’m sorry,” said the Professor, smiling fondly, “Harry can be a bit touchy
//about that sort of thing. But I expect he’s right about us not being interested
//in their conversation.”
-- Перепрошую, -- сказав професор зі схвальною усмішкою, -- Гаррі дещо
сильно реагує на такі речі. Але, гадаю, він має рацію щодо того, що нам не
буде цікаво їх слухати.

// 7227
//__Is he dangerous?__ Roberta wanted to ask, but she kept her silence and
//tried to think of subtler questions. Her husband beside her was chuckling, as
//if he’d found what they’d just seen funny, rather than frightening.
__Він небезпечний?__ хотіла запитати Роберта, але промовчала й спробувала
вигадати більш непримітні питання. Її чоловік поряд хихикав, ніби це все
його розсмішило, а не налякало.

// 7228
//The most terrible Dark Lord in history had tried to kill that boy, and the
//burnt husk of his body had been found next to the crib.
Найжахливіший темний лорд в історії намагався був убити цього хлопця, і від
нього залишилася лише обгоріла оболонка поряд з дитячим ліжком.

// 7229
//Her possible future son-in-law.
Її можливий майбутній зять.

// 7230
//Roberta had been increasingly apprehensive about giving her daughter over to
//witchcraft - especially after she’d read the books, put the dates together, and
//realized that her magical mother had probably been killed at the height of
//Grindelwald’s terror, __not__ died giving birth to her as her father had
//always claimed. But Professor McGonagall had made other visits after her first
//trip, to “see how Miss Granger is doing”; and Roberta couldn’t help but think
//that if Hermione said her parents were being troublesome about her witching
//career, something would be done to __fix__ them…
// hedrok: хоч я такого й не люблю, додав "влітку", щоб було зрозуміло про який
// час ідеться.
Влітку Роберті дедалі менше подобалася ідея віддати свою доньку у відьми --
особливо коли вона прочитала була книжки, зіставила дати й усвідомила, що її
матір-чаклунка, напевно, була вбита під час Ґріндельвальдського терору, а __не
померла__ під час пологів, як завжди стверджував її батько. Проте професорка
Макґонеґел не обмежилася єдиним візитом, і заходила знову, щоб "`подивитися, як
справи в міс Ґрейнджер`". І Роберта не могла стримати думки, що якби Герміона
сказала, що батьки завдають їй клопоту щодо відьомської карʼєри, то їх якось
__виправлять__...

// 7231
//Roberta put her best smile on her face, and did what she could to spread some
//pretended Christmas cheer.
Роберта вичавила найкращу свою усмішку, і зробила все можливе, щоб поширити
вдаваний дух Різдва.

***

// 7232
//The dining room table was much longer than six people - er, four people and two
//children - really needed, but all of it was draped with a tablecloth of fine
//white linen, and the dishes had been needlessly transferred to fancy serving
//plates, which at least were of stainless steel rather than real silver.
Стіл був значно довшим, ніж треба шести людям -- е, чотирьом людям та двом
дітям, -- проте всю його довжину вкривали якісні білі скатертини з льону, а
посуд носили на зайвих вишуканих тарелях. Вони хоча б були з нержавіючої
сталі, а не зі справжнього срібла.

// 7233
//Harry was having a bit of trouble concentrating on the turkey.
Гаррі було дещо складно зосередитися на індичці.

// 7234
//The conversation had turned to Hogwarts, naturally; and it’d been obvious to
//Harry that his parents were hoping that Hermione would trip up and say more
//about Harry’s school life than Harry had been telling them. And either Hermione
//had realized this, or she was just automatically steering clear of anything
//that might prove troublesome.
Розмова, звісно, йшла про Гоґвортс. І Гаррі було очевидно, що його батьки
сподівалися, що Герміона обмовиться й розкаже про шкільне життя Гаррі більше,
ніж Гаррі вже їм розповів був. І або Герміона розуміла це, або вона просто
автоматично уникала всього, що може викликати проблеми.

// 7235
//So __Harry__ was fine.
Отже в __Гаррі__ все було гаразд.

// 7236
//But unfortunately Harry had made the mistake of owling his parents with all
//sorts of facts about Hermione that she hadn’t told her __own__ parents.
Але, на жаль, Гаррі припустився був помилки: він надсилав совою своїм батькам
різноманітні цікаві факти про Герміону, про які вона не розповідала __власним__
батькам.

// 7237
//Like that she was general of an army in their after-school activities.
На кшталт того, що вона генерал війська в їхніх факультативних заняттях.

// 7238
//Hermione’s mother had looked very alarmed, and Harry had quickly interrupted
//and done his best to explain that all the spells were stunners, Professor
//Quirrell was always watching, and the existence of magical healing meant that
//lots of things were much less dangerous than they sounded, at which point
//Hermione had kicked him hard under the table. Thankfully Harry’s father, who
//Harry had to admit was better than him at some things, had announced with firm
//professorial authority that he hadn’t worried at all, since he couldn’t imagine
//children being allowed to do it if it was dangerous.
Матір Герміони була явно занепокоєна, і Гаррі швидко обірвав своїх батьків та
зробив усе можливе, щоб пояснити: використовувалися лише паралітичні закляття,
професор Квірел завжди за ними спостерігав, і через чаклунське лікування
багато що було значно безпечнішим, ніж здавалося, -- тоді Герміона сильно копнула
його під столом. На щастя, батько (що, як Гаррі мав визнати, був краще за нього
в деяких речах) з професійною впевненістю проголосив, що він анітрохи не
хвилювався, адже неможливо уявити, щоб дітям дозволяли робити щось небезпечне.

// 7239
//That wasn’t why Harry was having trouble enjoying dinner, though.
Втім, Гаррі складно було насолоджуватися вечерею не через це.

// 7240
//…the problem with feeling sorry for yourself was that it never took any time at
//all to find someone else who had it worse.
...проблема з жалінням себе полягає в тому, що завжди швидко знайдеться хтось,
кому значно гірше.

// 7241
//Dr. Leo Granger had asked, at one point, whether that nice teacher who’d seemed
//to like Hermione, Professor McGonagall, was awarding her lots of points in
//school.
Доктор Лео Ґрейнджер спитав був, чи та гарна вчителька, якій подобалася Герміона,
професорка Макґонеґел, давала їй купу очок у школі.

// 7242
//Hermione had said yes, with an apparently genuine smile.
Герміона просто сказала "`так`", ніби з щирою усмішкою.

// 7243
//Harry had managed, with some effort, to stop himself from icily pointing out
//that Professor McGonagall would never show favoritism to any Hogwarts student,
//and that Hermione was getting lots of points because she’d earned
//__every, single, one.__
Гаррі не без зусиль вдалося стриматися й не зазначити, що професорка Макґонеґел
ніколи не була помічена в несправедливості до жодного учня Гоґвортсу, і що
Герміона отримувала купу очок, адже заробила кожне-__кожнісіньке__ з них.

// 7244
//At another point, Leo Granger had offered the table his opinion that Hermione
//was very smart and could have gone to medical school and become a dentist, if
//not for the whole witch business.
Ще Лео Ґрейнджер поділився своєю думкою, що Герміона дуже розумна й могла б піти
до медичної школи та стати зубним лікарем, якби не все це відьомство.

// 7245
//Hermione had smiled again, and a quick glance had prevented Harry from
//suggesting Hermione might also have been an __internationally famous
//scientist__, and asking whether that thought would’ve occurred to the Grangers
//if they’d had a __son__ instead of a __daughter__, or if it was
//unacceptable either way for their offspring to do better than them.
Герміона знову всміхнулася, швидко поглянула на Гаррі, через що він не заявив,
що Герміона також могла б стати __міжнародно відомим науковцем__, і не запитав,
чи спало б це Ґрейнджерам на думку, якби в них народився __син__ замість
__доньки__, чи для їхніх нащадків у будь-якому разі досягти чогось більшого,
ніж спромоглися вони, було неприйнятним.

// 7246
//But Harry was rapidly reaching his boiling point.
Проте Гаррі швидко наближався до точки кипіння.

// 7247
//And becoming a __lot__ more appreciative of the fact that his own father
//had __always__ done everything he could to support Harry’s development as
//a prodigy and __always__ encouraged him to reach higher and __never__
//belittled a single one of his accomplishments, even if a child prodigy was
//still just a child. Was this the sort of household he could have ended up in,
//if Mum had married Vernon Dursley?
А також ставав __значно__ більш вдячним за те, що його батько __завжди__ робив
усе можливе, щоб підтримати розвиток Гаррі як вундеркінда і __завжди__ заохочував
його хотіти більшого і __ніколи__ не применшував жодного з його досягнень, навіть
якщо вважав вундеркінда лише дитиною. Невже він опинився би в такому домі, якби
мама одружилася з Верноном Дурслі?

// 7248
//Harry was doing what he could, though.
Втім, Гаррі робив що міг.

// 7249
//“And she’s really beating you in __all__ your classes except broomstick
//riding and Transfiguration?” said Professor Michael Verres-Evans.
-- Вона справді перевершує тебе в __усіх__ предметах, крім їзди на мітлах
та трансфігурації? -- запитав професор Майкл Веррес-Еванс.

// 7250
//“Yes,” Harry said with forced calm, as he cut himself another bite of Christmas
//Eve turkey. “By solid margins, in most of them.” There were other circumstances
//under which Harry would have been more reluctant to admit that, which was why
//he hadn’t gotten around to telling his father until now.
-- Так, -- відповів Гаррі зі змушеним спокоєм, доки відрізав собі черговий шматок
різдвяної індички. -- У всіх і з серйозним відривом.

За інших обставин Гаррі б менш охоче це визнав -- саме тому він досі не зібрався
сказати про це батькові.

// 7251
//“Hermione has always been quite good in school,” said Dr. Leo Granger in a
//satisfied tone.
-- Герміона завжди вчилася в школі доволі добре, -- задоволено сказав доктор
Лео Ґрейнджер.

// 7252
//“Harry competes at the national level!” said Professor Michael Verres-Evans.
-- Гаррі змагається на національному рівні! -- вигукнув професор Майкл
Веррес-Еванс.

// 7253
//“Dear!” said Petunia.
-- Любий! -- сказала Петунія.

// 7254
//Hermione was giggling, and that wasn’t making Harry feel any better about her
//situation. It didn’t seem to bother Hermione and __that bothered Harry.__
Герміона хихикала, та це геть не заспокоювало Гаррі щодо її ситуації.
Видається, це не турбувало Герміону, та __це турбувало Гаррі__.

// 7255
//“I’m not embarrassed to lose to her, Dad,” Harry said. Right at this moment he
//wasn’t. “Did I mention that she memorized all her schoolbooks before the first
//day of class? And yes, I tested it.”
-- Я не соромлюся програвати їй, тату, -- сказав Гаррі. Саме зараз це було
правдою. -- Чи казав я, що вона запамʼятала всі наші підручники ще до першого
дня занять? І так, я це перевіряв.

// 7256
//“Is that, ah, __usual__ for her?” Professor Verres-Evans said to the
//Grangers.
-- Це... а... __звичайно__ для неї? -- запитав професор Веррес-Еванс
Ґрейнджерів.

// 7257
//“Oh, yes, Hermione’s always memorizing things,” said Dr. Roberta Granger with a
//cheerful smile. “She knows every recipe in all my cookbooks by heart. I miss
//her every time I make dinner.”
-- О, так, Герміона завжди все запамʼятовує, -- відповіла доктор Роберта
Ґрейнджер з радісною усмішкою. -- Вона знає напамʼять кожен з рецептів у моїй
кухарській книзі. Мені її дуже бракує, коли я готую.

// 7258
//Judging by the look on his father’s face, Dad was feeling at least some of what
//Harry felt.
Судячи з виразу обличчя тата, він відчував принаймні частину того, що відчував
Гаррі.

// 7259
//“Don’t worry, Dad,” Harry said, “she’s getting all the advanced material she
//can take, now. Her teachers at Hogwarts know she’s smart, __unlike her
//parents!__”
-- Не хвилюйся, тату, -- сказав Гаррі, -- тепер вона отримує всі можливі
додаткові книжки й матеріали. Її вчителі в Гоґвортсі знають, що вона розумна,
-- __на відміну від її батьків__!

// 7260
//His voice had risen on the last three words, and even as all faces turned to
//stare at him and Hermione kicked him again, Harry knew that he’d blown it, but
//it was too much, just way too much.
Він підвищив голос на останні пʼять слів, і вже коли всі тільки почали
обертатися до нього, а Герміона знову копнула його, Гаррі знав, що все зіпсував.
Проте це вже було занадто, зовсім занадто.

// 7261
//“Of course we know she’s smart,” said Leo Granger, starting to look offended at
//the child who’d had the temerity to raise his voice at their dinner table.
-- Звісно ми знаємо, що вона розумна, -- сказав Лео Ґрейнджер, відчувалося, що
він образився на дитину, що наважилася підвищити голос за їхнім столом.

// 7262
//“You don’t have the tiniest idea,” said Harry, the ice now leaking into his
//voice. “You think she reads a lot of books and it’s cute, right? You see a
//perfect report card and you think it’s good that she’s doing well in class.
//Your daughter is the most talented witch of her generation and the brightest
//star of Hogwarts, and someday, Dr. and Dr. Granger, the fact that you were her
//parents will be the only reason that history remembers you!”
-- Та ви й гадки не маєте, -- сказав Гаррі, тепер в його голосі почав
відчуватися льодяний холод. -- Ви лише гадаєте, що вона читає купу книжок і це
мило, так? Ви бачите бездоганний табель і гадаєте, що це добре, що вона
відмінно вчиться в класі. Ваша дочка -- найталановитіша відьма свого покоління
й найяскравіша зірка Гоґвортсу. Колись, докторе та докторко Ґрейнджер, той
факт, що ви -- її батьки, буде єдиною причиною, чому вас памʼятатиме історія!

// 7263
//Hermione, who had calmly got up from her seat and walked around the table,
//chose that moment to grab Harry’s shirt by the shoulder and pull him out of his
//chair. Harry let himself be pulled, but as Hermione dragged him away, he said,
//raising his voice even louder, “It is entirely possible that in a thousand
//years, the fact that Hermione Granger’s parents were dentists will be the only
//reason anyone remembers dentistry!”
Герміона, що спокійно підвелася та підійшла до нього, вибрала саме цю мить, щоб
схопити футболку Гаррі за рукав та витягти його зі стільця. Гаррі дозволив це,
але доки Герміона тягла його геть, він продовжував дедалі гучніше:

-- Цілком можливо, що за тисячу років професію зубного лікаря не забудуть лише
через те, що зубними лікарями були батьки Герміони Ґрейнджер!

***

// 7264
//Roberta stared at where her daughter had just dragged the Boy-Who-Lived out of
//the room with a patient look upon her young face.
Роберта зі спокоєм на обличчі дивилася на те місце, куди її дочка щойно потягнула
Хлопчика-Що-Вижив з кімнати.

// 7265
//“I’m terribly sorry,” said Professor Verres with an amused smile. “But please
//don’t worry, Harry always talks like that. Aren’t they just like a married
//couple already?”
-- Мені страшенно прикро, -- сказав професор Веррес із задоволеною усмішкою на
обличчі. -- Проте не варто хвилюватися, Гаррі завжди так розмовляє. Ну хіба
вони вже не схожі на подружжя?

// 7266
//The frightening thing was that they __were.__
Найстрашнішим було те, що __схожі__.

***

// 7267
//Harry had been expecting a rather severe lecture from Hermione.
Гаррі підготувався до суворої лекції від Герміони.

// 7268
//But after Hermione pulled them into the basement access and closed the door
//behind them, she’d turned around -
Але після того, як Герміона затягла його в підвал та зачинила за ним двері, вона
обернулася...

// 7269
//- and was smiling, genuinely so far as Harry could tell.
...і всміхалася. Наскільки міг сказати Гаррі -- щиро.

// 7270
//“Please don’t, Harry,” she said in a soft voice. “Even though it’s very nice of
//you. Everything’s fine.”
-- Будь ласка, не треба, Гаррі, -- мʼяко сказала вона. -- Навіть якщо це дуже
мило з твого боку. Усе гаразд.

// 7271
//Harry just looked at her. “How can you stand it?” he said. He had to keep his
//voice quiet, they didn’t want the parents to hear, but it rose in pitch if not
//in volume. “__How can you stand it?__”
Гаррі витріщився на неї.

-- Як ти це витримуєш? -- запитав він. Він розмовляв тихо, бо не хотів, щоб почули
батьки, але підвищив тон замість гучності. -- __Як ти це витримуєш?__

// 7272
//Hermione shrugged, and said, “Because that’s the way parents __should__
//be?”
Герміона знизала плечима й сказала:

-- Бо саме такими й __мають__ бути батьки?

// 7273
//“No,” Harry said, his voice low and intense, “it’s not, my father
//__never__ puts me down - well, he __does__, but never like that -”
-- Ні, -- тихо й напружено сказав Гаррі, -- не мають, мій батько __ніколи__
не підводить мене... ну, __підводить__, але не так...

// 7274
//Hermione held up a single finger, and Harry waited, watching her search for
//words. It took her a while before she said, “Harry… Professor McGonagall and
//Professor Flitwick like me because I’m the most talented witch of my generation
//and the brightest star of Hogwarts. And Mum and Dad don’t know that, and you’ll
//never be able to tell them, but they love me anyway. Which means that
//everything is just the way it should be, at Hogwarts and at home. And since
//they’re __my__ parents, Mr. Potter, __you__ don’t get to argue.” She
//was once again smiling her mysterious smile from dinnertime, and looking at
//Harry very fondly. “__Is__ that clear, Mr. Potter?”
Герміона здійняла один палець, і Гаррі чекав, спостерігав, як вона добирає слова.
По деякому часі вона сказала:

-- Гаррі... Професорка Макґонеґел та професор Флитвік добре до мене ставляться, бо
я -- найталановитіша відьма свого покоління та найяскравіша зірка Гоґвортсу. А мама
й тато не знають цього, і ти ніколи не зможеш до них це донести, але вони все
одно мене люблять. Тобто все саме так, як має бути: у Гоґвортсі й удома. А оскільки
вони __мої__ батьки, містере Поттер, __ти__ не маєш права голосу, -- на її обличчі
знову сяяла таємнича усмішка, як за обідом, вона тепло подивилася на Гаррі. -- Це
__зрозуміло__, містере Поттер?

// 7275
//Harry nodded tightly.
Гаррі напружено кивнув.

// 7276
//“Good,” said Hermione, and leaned over and kissed him on the cheek.
-- Добре, -- сказала Герміона, нахилилася й поцілувала його в щоку.

***

// 7277
//The conversation had only just gotten started again when a distant high-pitched
//yelp floated back to them,
Тільки-но вони знову почали розмову, як почувся далекий високий скрик:

// 7278
//“__Hey! No kissing!__”
// hedrok: No kissing - є копія у 044:8223, 046:8454
"`__Гей! Жодних поцілунків!__`"

// 7279
//The two fathers burst out in laughter just as the two mothers rose up from
//their chairs with identical looks of horror and dashed toward the basement.
Два та{stress}ти розреготалися, а дві мами водночас підвелися з-за стола з
однаковим жахом на обличчях та хутко побігли до підвалу.

// 7280
//When the children had been brought back, Hermione was saying in an icy tone
//that she was never going to kiss Harry ever again, and Harry was saying in an
//outraged voice that the Sun would burn down to a cold dead cinder before he let
//her get close enough to try.
Коли дітей привели назад, Герміона льодяним тоном казала, що ніколи більше й не
збирається цілувати Гаррі, а Гаррі розлючено казав, що Сонце швидше догорить і
перетвориться на холодне вугілля, ніж Гаррі дозволить їй наблизитися до себе
достатньо близько, щоб спробувати.

// 7281
//Which meant that everything was just the way it should be, and they all sat
//back down again to finish their Christmas dinner.
Що означало, що все було саме так, як мало бути, всі вони знову сіли, щоб
завершити різдвяну вечерю.
